Place,WeightClassKg,Sex,Division,Name,BirthYear,Team,BodyweightKg,Squat1Kg,Squat2Kg,Squat3Kg,Best3SquatKg,Bench1Kg,Bench2Kg,Bench3Kg,Best3BenchKg,Deadlift1Kg,Deadlift2Kg,Deadlift3Kg,Best3DeadliftKg,TotalKg,Event,Equipment
1,57,F,Juniors Under 16,Nelly Kwaśkiewicz,2003,Stow. Centrum Formy Dąbrowa Górnicza,57,-107.5,110,115,115,50,55,-60.5,55,120,127.5,130.5,130.5,300.5,SBD,Raw
2,57,F,Juniors Under 16,Adrianna Borowczyk,2003,Stow. Sportatut Krobia,56.37,110,120,-125,120,50,52.5,55,55,110,115,122.5,122.5,297.5,SBD,Raw
3,57,F,Juniors Under 16,Laura Gwiżdż,2003,UKS Eugen Knurów,56.75,82.5,-90,90,90,55,-60.5,60.5,60.5,115,122.5,128.5,128.5,279,SBD,Raw
4,57,F,Juniors Under 16,Julia Jurczyk,2005,LKS Nadwiślanin Kwidzyn,42.87,65,70,72.5,72.5,35,40,-43,40,70,75,77.5,77.5,190,SBD,Raw
1,57+,F,Juniors Under 16,Maria Poniatowska,2003,PMKS Rybak Władysławowo,64.6,85,90,-92.5,90,45,50,52.5,52.5,85,-87.5,87.5,87.5,230,SBD,Raw
2,57+,F,Juniors Under 16,Magdalena Tomczak,2004,Stow. Sportatut Krobia,70.65,80,85,90,90,32.5,37.5,-40,37.5,90,100,110,110,237.5,SBD,Raw
DQ,57+,F,Juniors Under 16,Julia Jóźwiakowska,2005,KS Team Wrocław,60.75,-110,-110,-110,,45,50,-55,50,110,120,-130,120,,SBD,Raw
1,63,F,Juniors Under 18,Natalia Wójtowicz,2001,KS Team Wrocław,61.6,100,105,-110,105,65,-67.5,-67.5,65,135,-140,147.5,147.5,317.5,SBD,Raw
2,63,F,Juniors Under 18,Zuzanna Pawlicz,2002,Stow. Centrum Formy Dąbrowa Górnicza,51.9,100,105,110,110,52.5,56,,56,110,120,125,125,291,SBD,Raw
3,63,F,Juniors Under 18,Julia Florek,2001,KS Tęcza-Społem Kielce,57,95,-97.5,97.5,97.5,52.5,55,-57.5,55,120,130,-137.5,130,282.5,SBD,Raw
4,63,F,Juniors Under 18,Dominika Mazur,2002,KS Team Wrocław,50.1,-95,95,100,100,47.5,-50,50,50,107.5,115,-120,115,265,SBD,Raw
5,63,F,Juniors Under 18,Klaudia Gulka,2002,TKKF Śródmieście Legnica,60.6,90,100,-105,100,47.4,55,-57.5,55,115,127.5,-135,127.5,282.5,SBD,Raw
6,63,F,Juniors Under 18,Martyna Terlecka,2001,KS Team Wrocław,57.9,85,-92.5,-92.5,85,57.5,-60,60,60,117.5,122.5,-127.5,122.5,267.5,SBD,Raw
7,63,F,Juniors Under 18,Wiktoria Grzywa,2001,KS Team Wrocław,56.3,-80,80,85,85,-45,47.5,50,50,-120,125,-135.5,125,260,SBD,Raw
8,63,F,Juniors Under 18,Sandra Bogucka,2001,UKS Mechanik Sierpc,50.3,80,85,-87.5,85,45,-47.5,-47.5,45,107.5,115,-120,115,245,SBD,Raw
9,63,F,Juniors Under 18,Sandra Potocka,2001,KS Team Wrocław,62.8,-100,100,105,105,42.5,-47.5,-47.5,42.5,110,115,-122.5,115,262.5,SBD,Raw
DQ,63,F,Juniors Under 18,Emilia Pławuszewska,2001,KS Strength Coach Performance Wrocław,61,-80,-80,-80,,45,-47.5,-47.5,45,110,115,-117.5,115,,SBD,Raw
1,63+,F,Juniors Under 18,Zuzanna Raszka,2001,Stow. Centrum Formy Dąbrowa Górnicza,65.4,-120,120,125,125,62.5,65,-67.5,65,-145,145,155,155,345,SBD,Raw
2,63+,F,Juniors Under 18,Agata Sitko,2002,UKS Pover Kuźnik Chorzów,69.7,-130,130,132.5,132.5,75,80,-82.5,80,130,135,140,140,352.5,SBD,Raw
3,63+,F,Juniors Under 18,Nikola Śpica,2001,LKS Nadwiślanin Kwidzyn,70.9,120,-130,-130,120,65,70,75,75,145,152.5,157.5,157.5,352.5,SBD,Raw
4,63+,F,Juniors Under 18,Klaudia Murza,2002,KS Kobra Kościan,100,150,160,165,165,60,67.5,70,70,140,-150,150,150,385,SBD,Raw
5,63+,F,Juniors Under 18,Andżelika Płótnicka,2002,UKS Mechanik Sierpc,95.3,140,150,-155,150,-60,-60,60,60,150,160,165.5,165.5,375.5,SBD,Raw
6,63+,F,Juniors Under 18,Wiktoria Kluska,2002,KS Team Wrocław,83.04,-120,120,127.5,127.5,60,65,67.5,67.5,130,140,145,145,340,SBD,Raw
7,63+,F,Juniors Under 18,Izabella Januszewska,2002,LKS Nadwiślanin Kwidzyn,76.36,120,125,127.5,127.5,60,65,-70,65,120,127.5,132.5,132.5,325,SBD,Raw
1,63,F,Juniors Under 20,Sabina Durok,1999,Stow. Centrum Formy Dąbrowa Górnicza,61.2,135,142.5,145,145,67.5,70,-72.5,70,145,155,-160,155,370,SBD,Raw
2,63,F,Juniors Under 20,Zuzanna Kula,1999,Stow. Centrum Formy Dąbrowa Górnicza,46.7,110,113,116,116,67.5,-71,-71,67.5,125,135,138,138,321.5,SBD,Raw
3,63,F,Juniors Under 20,Izabela Góralska,2000,KS Harem Koszalin,55.3,-125,-125,125,125,-65,65,-68,65,142.5,150,155,155,345,SBD,Raw
4,63,F,Juniors Under 20,Magdalena Siemieńska,1999,SKS Mega-Gim Zawidz,62,-90,90,-100,90,-75,75,-80,75,125,135,-140,135,300,SBD,Raw
5,63,F,Juniors Under 20,Julia Kulczycka,2000,KS Team Wrocław,61.9,115,-120,-120,115,-57.5,57.5,-60,57.5,125,-135,-135,125,297.5,SBD,Raw
6,63,F,Juniors Under 20,Małgorzata Halemska,1999,KS Team Wrocław,62.1,95,102.5,-110,102.5,45,50,-52.5,50,145,-157.5,-160,145,297.5,SBD,Raw
7,63,F,Juniors Under 20,Natalia Dembna,2000,KS Team Wrocław,58.1,90,95,-100,95,52.5,57.5,60,60,110,117.5,125,125,280,SBD,Raw
8,63,F,Juniors Under 20,Martyna Marcyniuk,2000,AZS Politechnika Warszawska Warszawa,61.7,87.5,92.5,97.5,97.5,40,45,47.5,47.5,125,132.5,-140,132.5,277.5,SBD,Raw
9,63,F,Juniors Under 20,Natalia Wojtczak,2000,KS Team Wrocław,59.7,90,97.5,-102.5,97.5,57.5,62.5,65,65,100,-107.5,107.5,107.5,270,SBD,Raw
1,63+,F,Juniors Under 20,Ida Lis,2000,BKL Bełchatów,68.7,-170,170,-177.5,170,90,97.5,100,100,185,192.5,-200,192.5,462.5,SBD,Raw
2,63+,F,Juniors Under 20,Sandra Sołtyszewska,1999,KS Tęcza-Społem Kielce,68.4,135,142.5,-150,142.5,70,-75,-75,70,150,157.5,162.5,162.5,375,SBD,Raw
3,63+,F,Juniors Under 20,Matylda Korczyńska,2000,AZS Politechnika Warszawska Warszawa,66.6,100,105,110,110,-62.5,62.5,67.5,67.5,130,137.5,-145,137.5,315,SBD,Raw
4,63+,F,Juniors Under 20,Karolina Kołata,1999,UKS Pover Kuźnik Chorzów,106.2,130,140,-145,140,75,-80,-80,75,120,130,-140,130,345,SBD,Raw
DQ,63+,F,Juniors Under 20,Wiktoria Zalesińska,2000,KS Kobra Kościan,92.2,-150,-150,-150,,,,,,,,,,,SBD,Raw
1,63,F,Juniors Under 23,Agata Przybylska,1997,AZS Wojskowa Akademia Techniczna Warszawa,56.8,110,120,-125,120,60,-65,-65,60,140,150,152.5,152.5,332.5,SBD,Raw
2,63,F,Juniors Under 23,Anna Kaczmarska,1996,KSS Power&Muscle Wołów,58.2,115,120,-125,120,65,67.5,-70,67.5,125,135,140,140,327.5,SBD,Raw
3,63,F,Juniors Under 23,Inga Dynowska,1996,KS Team Wrocław,56.6,-107.5,-107.5,107.5,107.5,55,-57.5,-57.5,55,140,150,-160.5,150,312.5,SBD,Raw
4,63,F,Juniors Under 23,Alicja Lipka,1998,KS Team Wrocław,54.7,100,112.5,117.5,117.5,50,-55,-60,50,110,120,132.5,132.5,300,SBD,Raw
5,63,F,Juniors Under 23,Aleksandra Grzywniak,1997,KS Team Wrocław,54.1,-105,105,-110,105,57.5,62.5,-65,62.5,110,117.5,125,125,292.5,SBD,Raw
6,63,F,Juniors Under 23,Magdalena Kwiatek,1997,KS Studio Mocy Kolbuszowa,57.3,100,115,-122.5,115,60,-65,-65,60,110,120,-130,120,295,SBD,Raw
7,63,F,Juniors Under 23,Anna Fistek,1997,KS Team Wrocław,59.5,105,110,115,115,50,-55,-55,50,-120,-120,120,120,285,SBD,Raw
8,63,F,Juniors Under 23,Katarzyna Walczak,1997,AZS Uniwersytet Adama Mickiewicza Poznań,62.5,100,105,-107.5,105,47.5,50,52.5,52.5,130,-137.5,-137.5,130,287.5,SBD,Raw
9,63,F,Juniors Under 23,Ewelina Pysz,1998,KS Team Wrocław,53.2,92.5,97.5,102.5,102.5,42.5,45,-47.5,45,112.5,-117.5,120,120,267.5,SBD,Raw
10,63,F,Juniors Under 23,Marta Wilkowska,1998,KS Team Wrocław,59.5,-100,100,102.5,102.5,40,42.5,-45,42.5,125,135,-142.5,135,280,SBD,Raw
11,63,F,Juniors Under 23,Julia Kazalska,1997,KS Team Wrocław,55.4,-80,80,87.5,87.5,52.5,-57.5,-57.5,52.5,100,-107.5,-107.5,100,240,SBD,Raw
1,63+,F,Juniors Under 23,Paulina Lechowicz,1996,UKS Nike Żagań,84.19,137.5,140,142.5,142.5,92.5,97.5,100,100,145,155,165,165,407.5,SBD,Raw
2,63+,F,Juniors Under 23,Anna Niemczyk,1996,KS Team Wrocław,78.93,145,152.5,157.5,157.5,57.5,62.5,-65,62.5,155,165,-172.5,165,385,SBD,Raw
3,63+,F,Juniors Under 23,Agata Kaliciak,1997,KS Team Wrocław,87.1,135,142.5,-150,142.5,72.5,77.5,-80,77.5,155,170,175,175,395,SBD,Raw
4,63+,F,Juniors Under 23,Martyna Roczkalska,1997,KS Team Wrocław,65.3,130,135,137.5,137.5,70,-72.5,-72.5,70,-137.5,137.5,-140,137.5,345,SBD,Raw
5,63+,F,Juniors Under 23,Antonina Baraniak,1997,KS Team Wrocław,77.98,-105,110,117.5,117.5,60,62.5,65,65,115,125,137.5,137.5,320,SBD,Raw
6,63+,F,Juniors Under 23,Marlena Wronka,1996,Stow. Centrum Formy Dąbrowa Górnicza,114.9,135,140,145,145,65,-70,,65,137.5,145,-152.5,145,355,SBD,Raw
1,47,F,Open,Zuzanna Kula,1999,Stow. Centrum Formy Dąbrowa Górnicza,46.7,110,113,116,116,67.5,-71,-71,67.5,125,135,137.5,137.5,321,SBD,Raw
2,47,F,Open,Thu Sam,1995,Stow. Centrum Formy Dąbrowa Górnicza,45.8,85,-90,-92.5,85,57.5,-60,-60,57.5,90,95,97.5,97.5,240,SBD,Raw
1,52,F,Open,Paulina Szymanel,1995,Stow. Centrum Formy Dąbrowa Górnicza,49.1,105,110,,110,70,-75,,70,135,142.5,,142.5,322.5,SBD,Raw
2,52,F,Open,Zuzanna Pawlicz,2002,Stow. Centrum Formy Dąbrowa Górnicza,51.9,100,105,110,110,52.5,55,,55,110,120,125,125,290,SBD,Raw
3,52,F,Open,Dominika Mazur,2002,KS Team Wrocław,50.1,-95,95,100,100,47.5,-50,50,50,107.5,115,-120,115,265,SBD,Raw
1,57,F,Open,Izabela Góralska,2000,KS Harem Koszalin,55.3,-125,-125,125,125,-65,65,-67.5,65,142.5,150,155,155,345,SBD,Raw
2,57,F,Open,Agata Przybylska,1997,AZS Wojskowa Akademia Techniczna Warszawa,56.8,110,120,-125,120,60,-65,-65,60,140,150,152.5,152.5,332.5,SBD,Raw
3,57,F,Open,Iga Dąbek,1995,Stow. Centrum Formy Dąbrowa Górnicza,56.6,112.5,125,130,130,60,65,-70,65,115,135,-145,135,330,SBD,Raw
4,57,F,Open,Maria Olszowy,1989,KS Strength Coach Performance Wrocław,56.7,105,112.5,120,120,55,60,-65,60,125,135,-150,135,315,SBD,Raw
5,57,F,Open,Inga Dynowska,1996,KS Team Wrocław,56.6,-107.5,-107.5,107.5,107.5,55,-57.5,-57.5,55,140,150,-160.5,150,312.5,SBD,Raw
6,57,F,Open,Daria Walczykiewicz,1982,Zagłębie – Relax Konin,55.7,-100,100,-105,100,65,-72.5,-72.5,65,115,120,-125,120,285,SBD,Raw
G,63,F,Open,Magdalena Rutkowska,1990,KS Strength Coach Performance Wrocław,58.2,97.5,-102.5,-105,97.5,50,55,-60,55,100,110,120,120,272.5,SBD,Raw
1,63,F,Open,Marika Zandecka,1995,AZS Uniwersytet Adama Mickiewicza Poznań,62.8,137.5,145,147.5,147.5,72.5,77.5,80,80,162.5,172.5,-178,172.5,400,SBD,Raw
2,63,F,Open,Urszula Walukiewicz,1989,KS Team Wrocław,62.3,155,-162.5,162.5,162.5,80,-85,-85,80,140,145,147.5,147.5,390,SBD,Raw
3,63,F,Open,Joanna Czekurłan,1993,KS Team Wrocław,60.8,130,135,140,140,90,98,100,100,130,140,145,145,385,SBD,Raw
4,63,F,Open,Justyna Turek,1994,KS Team Wrocław,62.6,125,132.5,-137.5,132.5,-70,-70,70,70,165,172.5,-178.5,172.5,375,SBD,Raw
5,63,F,Open,Sabina Durok,1999,Stow. Centrum Formy Dąbrowa Górnicza,61.2,135,142.5,145,145,67.5,70,-72.5,70,145,155,-160,155,370,SBD,Raw
6,63,F,Open,Dominika Michalska,1994,LKS Nadwiślanin Kwidzyn,62.7,135,-140,-140,135,60,-62.5,-62.5,60,137.5,145,-150,145,340,SBD,Raw
7,63,F,Open,Weronika Szczechowska,1994,KS Team Wrocław,62.6,-110,110,-120,110,67.5,72.5,-75,72.5,130,140,145,145,327.5,SBD,Raw
8,63,F,Open,Katarzyna Mikulska,1982,KS Team Wrocław,59.5,102.5,-110,110,110,57.5,-60,-60,57.5,127.5,135,140,140,307.5,SBD,Raw
9,63,F,Open,Paulina Atłas,1994,KS Team Wrocław,59.7,110,115,-120,115,55,-60,-60,55,110,115,-125,115,285,SBD,Raw
G,63,F,Open,Karolina Bałut,1989,SSW Skierniewice,62.5,80,-85,-85,80,30,35,-37.5,35,90,-95,95,95,210,SBD,Raw
DQ,63,F,Open,Emilia Pławuszewska,2001,KS Strength Coach Performance Wrocław,61,-80,-80,-80,,45,-47.5,-47.5,45,110,115,-117.5,115,,SBD,Raw
DQ,63,F,Open,Martyna Herman,1993,KS Studio Mocy Kolbuszowa,62.7,105,110,-115,110,-70,-70,-72.5,,135,142.5,150,150,,SBD,Raw
1,72,F,Open,Ida Lis,2000,BKL Bełchatów,68.7,-170,170,-177.5,170,90,97.5,100,100,185,192.5,-200,192.5,462.5,SBD,Raw
2,72,F,Open,Sandra Sołtyszewska,1999,KS Tęcza-Społem Kielce,68.4,135,142.5,-150,142.5,70,-75,-75,70,150,157.5,162.5,162.5,375,SBD,Raw
3,72,F,Open,Edyta Stark,1991,KS Team Wrocław,65.7,137.5,142.5,-147.5,142.5,57.5,62.5,65,65,137.5,147.5,152.5,152.5,360,SBD,Raw
4,72,F,Open,Izabela Chatlińska,1978,Stow. Sportatut Krobia,71.2,140,-150,-150,140,55,60,-65,60,150,160,165,165,365,SBD,Raw
5,72,F,Open,Agata Sitko,2002,UKS Pover Kuźnik Chorzów,69.7,-130,130,132.5,132.5,75,80,-82.5,80,130,135,140,140,352.5,SBD,Raw
6,72,F,Open,Katarzyna Kruszewska-Dudłak,1984,Stow. Centrum Formy Dąbrowa Górnicza,69.1,110,-120,120,120,60,-65,65,65,130,140,145,145,330,SBD,Raw
7,72,F,Open,Aleksandra Gudecka,1984,KS Team Wrocław,71.1,-115,115,-122.5,115,65,70,72.5,72.5,130,135,140,140,327.5,SBD,Raw
8,72,F,Open,Monika Łaś,1988,TKKF Azory Kraków,63.9,100,105,-110,105,55,57.5,-60,57.5,130,140,147.5,147.5,310,SBD,Raw
9,72,F,Open,Agnieszka Wiecińska,1986,AZS Politechnika Warszawska Warszawa,67.9,95,105,112.5,112.5,47.5,52.5,-55,52.5,130,137.5,145,145,310,SBD,Raw
10,72,F,Open,Aleksandra Milczarek,1995,AZS Uniwersytet Adama Mickiewicza Poznań,69.8,120,125,127.5,127.5,47.5,-50,-50,47.5,127.5,135,-142.5,135,310,SBD,Raw
11,72,F,Open,Daria Kałucka-Ismer,1992,UKS Pover Kuźnik Chorzów,67.2,95,100,-105,100,60,62.5,-65,62.5,110,115,-120,115,277.5,SBD,Raw
1,84,F,Open,Karolina Radgowska,1993,KS Strength Coach Performance Wrocław,73.79,155,162.5,167.5,167.5,70,75,-77.5,75,170,180,187.5,187.5,430,SBD,Raw
2,84,F,Open,Sylwia Zaczkiewicz,1982,KS Team Wrocław,79.47,130,140,145,145,80,85,87.5,87.5,120,130,140,140,372.5,SBD,Raw
3,84,F,Open,Daria Czech,1993,KS Team Wrocław,82.38,130,137.5,145,145,55,57.5,-60,57.5,130,140,145,145,347.5,SBD,Raw
4,84,F,Open,Katarzyna Dzieżok,1985,UKS Eugen Knurów,78.7,95,102.5,107.5,107.5,62.5,67.5,-70,67.5,120,130,140,140,315,SBD,Raw
DQ,84,F,Open,Małgorzata Malikowska-Pikula,1985,KS Michael Warszawa,76.21,145,152.5,-160,152.5,-120,-120,-120,,145,157.5,165,165,,SBD,Raw
1,84+,F,Open,Anna Wieczorek,1984,SSW Skierniewice,86.3,176,-181,181,181,75,80,82.5,82.5,170,175,180.5,180.5,444,SBD,Raw
2,84+,F,Open,Anna Zielińska,1993,KS Strength Coach Performance Wrocław,84.3,-125,125,132.5,132.5,62.5,-67.5,-67.5,62.5,140,-152.5,155,155,350,SBD,Raw
3,84+,F,Open,Katarzyna Pietkiewicz,1995,KS Team Wrocław,84.4,125,132.5,-140,132.5,65,-70,-72.5,65,140,150,-155,150,347.5,SBD,Raw
4,84+,F,Open,Marlena Wronka,1996,Stow. Centrum Formy Dąbrowa Górnicza,114.9,135,140,145,145,65,-70,,65,137.5,145,-152.5,145,355,SBD,Raw
5,84+,F,Open,Karolina Kołata,1999,UKS Pover Kuźnik Chorzów,106.2,130,140,-145,140,75,-80,-80,75,120,130,-140,130,345,SBD,Raw
1,,F,Masters 40-49,Izabela Chatlińska,1978,Stow. Sportatut Krobia,71.2,140,-150,-150,140,55,60,-65,60,150,160,165,165,365,SBD,Raw
2,,F,Masters 40-49,Danuta Golubiewska,1974,Stow. Masakra Ełk,73.61,115,122.5,-130,122.5,70,72.5,-75,72.5,130,140,-145,140,335,SBD,Raw
3,,F,Masters 40-49,Agnieszka Kwiatkowska,1976,AZS Politechnika Warszawska Warszawa,72.7,-115,115,120,120,55,60,62.5,62.5,130,140,145,145,327.5,SBD,Raw
4,,F,Masters 40-49,Joanna Kruk,1977,KSS Świt Świdwin,102.5,120,132.5,140,140,65,70,-72.5,70,130,140,-150,140,350,SBD,Raw
5,,F,Masters 40-49,Barbara Bachniak,1975,KS Team Wrocław,90.8,110,115,-120,115,65,70,-72.5,70,127.5,135,140,140,325,SBD,Raw
1,,F,Masters 50+,Grażyna Gębala,1966,SSW Skierniewice,57,-85,85,92.5,92.5,40,-45,45,45,105,115,120,120,257.5,SBD,Raw
1,74,M,Juniors Under 16,Jakub Bońkowski,2004,LKS Grom Przasnysz,51.44,90,100,105.5,105.5,47.5,52.5,55,55,125,132.5,137.5,137.5,298,SBD,Raw
2,74,M,Juniors Under 16,Karol Drozdowski,2003,KS Team Wrocław,72.91,125,130,135,135,-75,75,80,80,170,-180,-180,170,385,SBD,Raw
1,74+,M,Juniors Under 16,Krystian Muczyński,2003,MKS Wicher Kobyłka,88.93,190,200,210,210,110,120,-127.5,120,200,220,246,246,576,SBD,Raw
2,74+,M,Juniors Under 16,Dominik Mularski,2003,KSSSiKW Wiking Starachowice,81.45,165,175,180,180,97.5,102.5,105,105,185,195,-202.5,195,480,SBD,Raw
3,74+,M,Juniors Under 16,Bartłomiej Tuszyński,2003,GKS Kraska Jasieniec,140.04,220,240.5,245.5,245.5,120,130,140.5,140.5,220,240,-245,240,626,SBD,Raw
4,74+,M,Juniors Under 16,Kacper Olszowy,2003,KS Studio Mocy Kolbuszowa,92.29,155,165,175,175,97.5,-102.5,102.5,102.5,190,205,-215,205,482.5,SBD,Raw
5,74+,M,Juniors Under 16,Dawid Margas,2003,Stow. Centrum Formy Dąbrowa Górnicza,81.42,152.5,-160,160,160,85,92.5,-97.5,92.5,165,175,-185,175,427.5,SBD,Raw
6,74+,M,Juniors Under 16,Maks Golec,2004,KSSSiKW Wiking Starachowice,81.39,140,147.5,157.5,157.5,67.5,75,82.5,82.5,160,170,177.5,177.5,417.5,SBD,Raw
7,74+,M,Juniors Under 16,Gariel Ryś,2004,KSSSiKW Wiking Starachowice,76.55,132.5,145,152.5,152.5,95,-100,100,100,132.5,142.5,-147.5,142.5,395,SBD,Raw
8,74+,M,Juniors Under 16,Aleks Andrzejewski,2004,SSW Skierniewice,97.24,140,150,160,160,80,90,-95,90,160,170,175,175,425,SBD,Raw
9,74+,M,Juniors Under 16,Dominik Słoma,2003,SSW Skierniewice,93.04,-140,140,142.5,142.5,-65,-65,65,65,165,170,180,180,387.5,SBD,Raw
10,74+,M,Juniors Under 16,Mateusz Poniatowski,2005,PMKS Rybak Władysławowo,76.92,115,120,-130,120,77.5,80,82.5,82.5,-125,130,140,140,342.5,SBD,Raw
1,74,M,Juniors Under 18,Bartosz Warszczuk,2001,KSS Ronin Głuszyca,71.8,180,190,195,195,105,112.5,117.5,117.5,190,210,222.5,222.5,535,SBD,Raw
2,74,M,Juniors Under 18,Przemysław Berezowski,2001,KS Team Wrocław,58.9,150,173,-174,173,82.5,90,95,95,170,185,191,191,459,SBD,Raw
3,74,M,Juniors Under 18,Daniel Siedlecki,2001,KS Strength Coach Performance Wrocław,73.6,162.5,-167.5,-167.5,162.5,110,112.5,-115,112.5,205,212.5,220,220,495,SBD,Raw
4,74,M,Juniors Under 18,Karol Kruszyński,2002,LKS Nadwiślanin Kwidzyn,58.4,145,150,-155,150,70,75,80,80,170,175,190.5,190.5,420.5,SBD,Raw
5,74,M,Juniors Under 18,Bartłomiej Molga,2001,Stow. Centrum Formy Dąbrowa Górnicza,72.3,-170,170,175,175,105,-110,-110,105,-190,195,202.5,202.5,482.5,SBD,Raw
6,74,M,Juniors Under 18,Radosław Dębicki,2001,Stow. Centrum Formy Dąbrowa Górnicza,67.5,140,150,160,160,105,110,112.5,112.5,165,175,180,180,452.5,SBD,Raw
7,74,M,Juniors Under 18,Bartosz Bebło,2002,KS Studio Mocy Kolbuszowa,69.2,-170,-170,170,170,95,-105,-105,95,170,185,-200,185,450,SBD,Raw
8,74,M,Juniors Under 18,Hubert Jasiński,2001,KS Tęcza-Społem Kielce,74,147.5,155,162.5,162.5,95,102.5,107.5,107.5,177.5,190,200,200,470,SBD,Raw
9,74,M,Juniors Under 18,Arkadiusz Kukurowski,2001,KS Team Wrocław,73.6,-160,160,170,170,85,90,-95,90,180,-190,190,190,450,SBD,Raw
10,74,M,Juniors Under 18,Dominik Sewioł,2001,TKKF Azory Kraków,59.8,-125,125,-132.5,125,75,80,-82.5,80,160,167.5,170,170,375,SBD,Raw
11,74,M,Juniors Under 18,Bartosz Moszczyński,2001,KS Team Wrocław,71.7,-150,-150,150,150,-80,-80,85,85,170,180,190,190,425,SBD,Raw
12,74,M,Juniors Under 18,Wojciech Strycharz,2002,KS Team Wrocław,62.3,85,92.5,97.5,97.5,55,-60,65,65,110,125,140,140,302.5,SBD,Raw
1,74+,M,Juniors Under 18,Jakub Lenart,2001,TKKF Azory Kraków,88.3,230,-240,245,245,165,170,175,175,-230,-230,230,230,650,SBD,Raw
2,74+,M,Juniors Under 18,Bartłomiej Bogdewicz,2002,AZS Politechnika Warszawska Warszawa,82.8,210,220,-230.5,220,120,125,130,130,-230,230,243.5,243.5,593.5,SBD,Raw
3,74+,M,Juniors Under 18,Grzegorz Heinze,2002,KS Team Wrocław,103.9,245,255,262.5,262.5,127.5,-135,135,135,235,242.5,247.5,247.5,645,SBD,Raw
4,74+,M,Juniors Under 18,Jakub Grycman,2001,KS Team Wrocław,82.1,-185,195,202.5,202.5,117.5,125,130,130,200,215,230,230,562.5,SBD,Raw
5,74+,M,Juniors Under 18,Michał Kowalczyk,2001,TKKF Azory Kraków,84,195,210,-215,210,145,-152.5,152.5,152.5,190,-197.5,200,200,562.5,SBD,Raw
6,74+,M,Juniors Under 18,Karol Wójcik,2001,KSSSiKW Wiking Starachowice,103.8,-225,225,-230,225,-145,-145,145,145,220,240,260,260,630,SBD,Raw
7,74+,M,Juniors Under 18,Konrad Zieliński,2001,UKS Mechanik Sierpc,92.9,210,220,230,230,120,127.5,-132.5,127.5,-230,235,-250,235,592.5,SBD,Raw
8,74+,M,Juniors Under 18,Michał Piszczor,2001,TKKF Azory Kraków,116.2,215,225,232.5,232.5,161,-170,-170,161,255,262.5,270.5,270.5,664,SBD,Raw
9,74+,M,Juniors Under 18,Mateusz Żyła,2001,KS Harem Koszalin,80.1,180,190,-195,190,105,-110,,105,-225,-225,225,225,520,SBD,Raw
10,74+,M,Juniors Under 18,Paweł Hańczyc,2001,Stow. Masakra Ełk,83.7,175,185,192.5,192.5,105,112.5,-120,112.5,220,-230,-230,220,525,SBD,Raw
11,74+,M,Juniors Under 18,Kamil Bartuzel,2002,KS Studio Mocy Kolbuszowa,90.9,170,-185,192.5,192.5,100,-110,-112.5,100,200,210,225,225,517.5,SBD,Raw
12,74+,M,Juniors Under 18,Jakub Lachcik,2001,KS Studio Mocy Kolbuszowa,87.1,160,170,180,180,105,-112.5,112.5,112.5,185,195,205,205,497.5,SBD,Raw
13,74+,M,Juniors Under 18,Jakub Zalewski,2002,SKFSiR Piękni i Zdrowi Dzierżoniów,85.4,160,170,-180,170,102.5,107.5,-110,107.5,185,200,210,210,487.5,SBD,Raw
14,74+,M,Juniors Under 18,Hubert Rajkowski,2001,KS Anmar Warszawa,84.6,-170,177.5,-182.5,177.5,95,-102.5,102.5,102.5,190,200,-205,200,480,SBD,Raw
15,74+,M,Juniors Under 18,Bartosz Haczykowski,2001,SSW Skierniewice,80,115,120,130,130,90,95,-100,95,140,150,-160,150,375,SBD,Raw
DQ,74+,M,Juniors Under 18,Jakub Krakowian,2001,Stow. Centrum Formy Dąbrowa Górnicza,93.7,-220,-220,-225,,-132.5,132.5,-137.5,132.5,210,220,230,230,,SBD,Raw
1,83,M,Juniors Under 20,Hubert Zaręba,1999,KS Studio Mocy Kolbuszowa,64.75,-180,193,-200,193,115,120,-127,120,210,-220,-220,210,523,SBD,Raw
2,83,M,Juniors Under 20,Jakub Micał,1999,KS Team Wrocław,81.4,212.5,220,,220,127.5,135,-140,135,220,235,-255,235,590,SBD,Raw
3,83,M,Juniors Under 20,Dominik Boczek,2000,KS Studio Mocy Kolbuszowa,77.4,170,182.5,-192.5,182.5,125,132.5,137.5,137.5,210,222.5,232.5,232.5,552.5,SBD,Raw
4,83,M,Juniors Under 20,Arkadiusz Kostecki,2000,Stow. Centrum Formy Dąbrowa Górnicza,58.79,155,162.5,-165,162.5,97.5,102.5,-105,102.5,180,190,-196,190,455,SBD,Raw
5,83,M,Juniors Under 20,Michał Bielski,1999,KS Team Wrocław,80.6,185,195,200,200,110,115,120,120,200,220,235,235,555,SBD,Raw
6,83,M,Juniors Under 20,Kacper Szymaniak,1999,KSS Power&Muscle Wołów,83,200,207.5,-217.5,207.5,120,125,-130,125,205,217.5,230,230,562.5,SBD,Raw
7,83,M,Juniors Under 20,Kamil Światły,1999,AZS Uniwersytet Adama Mickiewicza Poznań,74.8,180,190,195,195,115,122.5,-125,122.5,190,200,207.5,207.5,525,SBD,Raw
8,83,M,Juniors Under 20,Damian Hanczaruk,1999,Stow. Strefa Mocy Białystok,78.1,170,177.5,-190,177.5,120,-127.5,127.5,127.5,180,187.5,195,195,500,SBD,Raw
9,83,M,Juniors Under 20,Wojciech Sochacki,2000,TKKF Azory Kraków,75,165,-172.5,-172.5,165,95,100,102.5,102.5,185,190,-195,190,457.5,SBD,Raw
10,83,M,Juniors Under 20,Filip Zatorski,2000,Stow. Strefa Mocy Białystok,81,150,165,175,175,110,115,-120,115,180,190,,190,480,SBD,Raw
11,83,M,Juniors Under 20,Wiktor Taraszkiewicz,1999,KS Team Wrocław,83,-130,130,-135,130,90,-95,-95,90,160,-175,-180,160,380,SBD,Raw
1,83+,M,Juniors Under 20,Paweł Przybojewski,1999,UKS Mechanik Sierpc,92.7,200,210,215,215,125,135,-142.5,135,240,252.5,265,265,615,SBD,Raw
2,83+,M,Juniors Under 20,Eryk Paszkiewicz,2000,Stow. Masakra Ełk,102.24,-245,-250,250,250,125,-130,-130,125,255,262.5,-275,262.5,637.5,SBD,Raw
3,83+,M,Juniors Under 20,Bartosz Szczepankiewicz,1999,KS Studio Mocy Kolbuszowa,99.79,225,-235,-235,225,145,152.5,-160,152.5,235,-252.5,-252.5,235,612.5,SBD,Raw
4,83+,M,Juniors Under 20,Paweł Kauf,2000,KS Team Wrocław,84,180,190,202.5,202.5,110,117.5,-125,117.5,-200,200,207.5,207.5,527.5,SBD,Raw
5,83+,M,Juniors Under 20,Robert Stempniak,2000,TKKF Herkules Warszawa,90.1,205,-215,-215,205,-115,115,120,120,210,215,-220,215,540,SBD,Raw
6,83+,M,Juniors Under 20,Jakub Szewczyk,2000,KS Studio Mocy Kolbuszowa,117.7,200,215,-230,215,105,115,-125,115,220,240,250,250,580,SBD,Raw
7,83+,M,Juniors Under 20,Norbert Trajer,1999,KS Team Wrocław,89.1,185,-200,-200,185,127.5,-135,-135,127.5,170,-185,-185,170,482.5,SBD,Raw
DQ,83+,M,Juniors Under 20,Bartosz Roszer,1999,Stow. Centrum Formy Dąbrowa Górnicza,92.6,-200,-200,-200,,160,-167.5,-167.5,160,205,-215,,205,,SBD,Raw
1,83,M,Juniors Under 23,Andrzej Krawontka,1996,TKKF Azory Kraków,81.2,235,-245,-245,235,140,147.5,-152.5,147.5,250,265,273,273,655.5,SBD,Raw
2,83,M,Juniors Under 23,Łukasz Gęślicki,1996,Stow. Strefa Mocy Białystok,82.3,210,-220,-220,210,145,-152.5,-152.5,145,250,265,272.5,272.5,627.5,SBD,Raw
3,83,M,Juniors Under 23,Michał Jasak,1997,AZS Politechnika Warszawska Warszawa,65.35,170,-180,-180,170,-120,120,125,125,215,222.5,237.5,237.5,532.5,SBD,Raw
4,83,M,Juniors Under 23,Kamil Drzymała,1998,Stow. Centrum Formy Dąbrowa Górnicza,73.4,190,200,205,205,-132.5,137.5,142.5,142.5,215,225,-230,225,572.5,SBD,Raw
5,83,M,Juniors Under 23,Konrad Kościńczyk,1996,KS Team Wrocław,80.5,180,190,-200,190,135,142.5,-145,142.5,240,260,-271.5,260,592.5,SBD,Raw
6,83,M,Juniors Under 23,Krystian Niedźwiedź,1997,KSSSiKW Wiking Starachowice,75.6,185,195,202.5,202.5,130,135,140,140,205,215,225,225,567.5,SBD,Raw
7,83,M,Juniors Under 23,Hubert Kończak,1998,KSSSiKW Wiking Starachowice,77,180,190,200,200,117.5,125,130,130,225,240,-245,240,570,SBD,Raw
8,83,M,Juniors Under 23,Marcin Oleś,1997,UKS Eugen Knurów,82.2,195,200,-205,200,137.5,142.5,-147.5,142.5,215,225,-230,225,567.5,SBD,Raw
9,83,M,Juniors Under 23,Kazimierz Daszkiewicz,1998,AZS Politechnika Warszawska Warszawa,73.8,160,170,180,180,120,122.5,127.5,127.5,215,-225,-225,215,522.5,SBD,Raw
10,83,M,Juniors Under 23,Iwo John,1996,AZS Politechnika Warszawska Warszawa,80.6,170,180,187.5,187.5,-120,120,-122.5,120,200,210,220,220,527.5,SBD,Raw
11,83,M,Juniors Under 23,Maciej Potucha,1996,Stow. Centrum Formy Dąbrowa Górnicza,82.2,180,-190,-190,180,105,110,-112.5,110,230,240,-245,240,530,SBD,Raw
12,83,M,Juniors Under 23,Kacper Bala,1997,KS Team Wrocław,82.6,175,190,-200,190,107.5,115,-120,115,215,-230,-230,215,520,SBD,Raw
13,83,M,Juniors Under 23,Grzegorz Wardach,1998,TKKF Herkules Warszawa,81.4,190,197.5,202.5,202.5,112.5,115,117.5,117.5,182.5,192.5,-200,192.5,512.5,SBD,Raw
14,83,M,Juniors Under 23,Patryk Witak,1997,KS Studio Mocy Kolbuszowa,73.5,160,-175,-182.5,160,115,120,-122.5,120,-192.5,192.5,200,200,480,SBD,Raw
15,83,M,Juniors Under 23,Aleksander Kondrusik,1996,KS Team Wrocław,82.8,155,165,172.5,172.5,125,130,132.5,132.5,175,185,195,195,500,SBD,Raw
16,83,M,Juniors Under 23,Konrad Czwojda,1996,Stow. Sportatut Krobia,78.2,150,160,165,165,-60,80,90,90,200,215,225,225,480,SBD,Raw
17,83,M,Juniors Under 23,Piotr Bilicki,1997,UKS Mechanik Sierpc,58.73,110,117.5,125,125,105,-112.5,-112.5,105,150,160,-162.5,160,390,SBD,Raw
18,83,M,Juniors Under 23,Sławomir Szymura,1998,KS Tęcza-Społem Kielce,72.4,-157.5,157.5,-162.5,157.5,102.5,107.5,-112.5,107.5,170,182.5,,182.5,447.5,SBD,Raw
1,83+,M,Juniors Under 23,Adrian Świerczyński,1996,SKFSiR Piękni i zdrowi Dzierżoniów,104.26,250,260,267.5,267.5,187.5,195,-200,195,280,300,-310.5,300,762.5,SBD,Raw
2,83+,M,Juniors Under 23,Jakub Sarnicki,1996,Stow. Centrum Formy Dąbrowa Górnicza,102.15,200,220,230,230,150,160,-162.5,160,260,270,280,280,670,SBD,Raw
3,83+,M,Juniors Under 23,Sławomir Nowak,1998,KS Team Wrocław,95,225,235,-242.5,235,157.5,165,170,170,220,235,-242.5,235,640,SBD,Raw
4,83+,M,Juniors Under 23,Sebastian Kwiatkowski,1996,Stow. Centrum Formy Dąbrowa Górnicza,125.3,250,260,270,270,160,170,-181,170,270,290,-300,290,730,SBD,Raw
5,83+,M,Juniors Under 23,Kamil Cyba,1996,KS Team Wrocław,95.21,205,212.5,220,220,140,145,150,150,240,260,262.5,262.5,632.5,SBD,Raw
6,83+,M,Juniors Under 23,Dawid Karasiński,1996,KSS Power&Muscle Wołów,97.67,215,225,240,240,145,150,-155,150,240,250,-260,250,640,SBD,Raw
7,83+,M,Juniors Under 23,Wiktor Ciachera,1996,AZS Uniwersytet Adama Mickiewicza Poznań,83.8,205,210,215,215,127.5,-135,-135,127.5,225,232.5,-237.5,232.5,575,SBD,Raw
8,83+,M,Juniors Under 23,Damian Kuśmierczak,1998,KS Studio Mocy Kolbuszowa,89.2,170,-195,205,205,130,-140,140,140,250,-260,-260,250,595,SBD,Raw
9,83+,M,Juniors Under 23,Adrian Kwas,1998,Stow. Centrum Formy Dąbrowa Górnicza,89.8,-215,-215,220,220,130,137.5,140,140,225,-235,,225,585,SBD,Raw
10,83+,M,Juniors Under 23,Przemysław Kłopotowski,1996,KS Strength Coach Performance Wrocław,95.6,210,220,-227.5,220,137.5,145,-150,145,220,235,-245,235,600,SBD,Raw
11,83+,M,Juniors Under 23,Bartłomiej Bigaj,1996,KS Team Wrocław,85.3,190,200,-210,200,110,117.5,-122.5,117.5,210,225,230,230,547.5,SBD,Raw
12,83+,M,Juniors Under 23,Krystian Chmura,1997,KSSSiKW Wiking Starachowice,90.5,185,-195,-195,185,130,137.5,-142.5,137.5,220,235,242.5,242.5,565,SBD,Raw
13,83+,M,Juniors Under 23,Kacper Krzyszczuk,1998,TKKF Śródmieście Legnica,93.65,210,220,225,225,122.5,-127.5,-127.5,122.5,205,215,225,225,572.5,SBD,Raw
14,83+,M,Juniors Under 23,Jacek Jurga,1996,KS Team Wrocław,120.6,-245,245,-265,245,155,-162.5,162.5,162.5,-235,235,-245,235,642.5,SBD,Raw
15,83+,M,Juniors Under 23,Gracjan Sobiesiak,1996,TKKF Śródmieście Legnica,103.47,200,210,215,215,120,127.5,132.5,132.5,215,225,-232.5,225,572.5,SBD,Raw
16,83+,M,Juniors Under 23,Przemysław Pal,1998,KS Team Wrocław,85.5,160,167.5,175,175,105,110,-115,110,185,200,-205,200,485,SBD,Raw
17,83+,M,Juniors Under 23,Patryk Olejnik,1998,TKKF Śródmieście Legnica,105.86,182.5,190,-200,190,-132.5,132.5,137.5,137.5,200,210,-215,210,537.5,SBD,Raw
G,83+,M,Juniors Under 23,Marcin Lange,1997,PMKS Rybak Władysławowo,94.46,150,,,150,120,,,120,150,,,150,420,SBD,Raw
1,59,M,Open,Sławomir Śledź,1976,TKKF Śródmieście Legnica,58.62,180,190,197.5,197.5,140,145,150,150,205,215,222.5,222.5,570,SBD,Raw
2,59,M,Open,Arkadiusz Kostecki,2000,Stow. Centrum Formy Dąbrowa Górnicza,58.79,155,162.5,-165,162.5,97.5,102.5,-105,102.5,180,190,-195,190,455,SBD,Raw
1,66,M,Open,Mariusz Grotkowski,1989,KSSSiKW Wiking Starachowice,65.54,185,192.5,-200,192.5,145,152.5,-155.5,152.5,220,-230,-230,220,565,SBD,Raw
2,66,M,Open,Michał Jasak,1997,AZS Politechnika Warszawska Warszawa,65.35,170,-180,-180,170,-120,120,125,125,215,222.5,237.5,237.5,532.5,SBD,Raw
3,66,M,Open,Michał Łysoń,1991,KS Strength Coach Performance Wrocław,65.1,175,182.5,-185,182.5,127.5,-132.5,-132.5,127.5,200,-205,,200,510,SBD,Raw
1,74,M,Open,Piotr Jakimiuk,1987,KS Team Wrocław,73.79,230,237.5,242.5,242.5,157.5,165,-167.5,165,255,265,-272.5,265,672.5,SBD,Raw
2,74,M,Open,Konrad Barczykowski,1994,KS Team Wrocław,72.43,197.5,202.5,207.5,207.5,117.5,122.5,-125,122.5,210,222.5,232.5,232.5,562.5,SBD,Raw
3,74,M,Open,Kamil Poręba,1991,KS Team Wrocław,73.49,192.5,200,205,205,137.5,142.5,145,145,197.5,207.5,217.5,217.5,567.5,SBD,Raw
4,74,M,Open,Marek Remiszewski,1978,Stow. Centrum Formy Dąbrowa Górnicza,72.48,170,177.5,182.5,182.5,130,137.5,-142.5,137.5,195,210,215,215,535,SBD,Raw
5,74,M,Open,Tomasz Ruszczak,1994,Stow. Centrum Formy Dąbrowa Górnicza,72.49,170,180,185,185,110,117.5,125,125,200,210,217.5,217.5,527.5,SBD,Raw
6,74,M,Open,Kamil Lewicki,1992,Stow. Centrum Formy Dąbrowa Górnicza,73.05,170,180,-190,180,105,-110,-110,105,220,230,-237.5,230,515,SBD,Raw
1,83,M,Open,Jacek Spychała,1978,KSSSiKW Wiking Starachowice,82.9,245,255,260,260,160,167.5,172.5,172.5,270,285,295,295,727.5,SBD,Raw
2,83,M,Open,Daniel Ilczyszyn,1994,AZS Wojskowa Akademia Techniczna Warszawa,83,245,260,266,266,162.5,170,-175,170,260,270,-275,270,706,SBD,Raw
3,83,M,Open,Grzegorz Kraujutowicz,1993,Stow. Centrum Formy Dąbrowa Górnicza,80.3,220,-230,-240,220,145,155,-160,155,255,265,-275,265,640,SBD,Raw
4,83,M,Open,Bartłomiej Wirek,1983,Stow. Centrum Formy Dąbrowa Górnicza,82.3,-190,190,200,200,160,165,170,170,210,225,240,240,610,SBD,Raw
5,83,M,Open,Wiktor Wiśniewski,1995,KS Strength Coach Performance Wrocław,80.2,200,210,-217.5,210,125,130,132.5,132.5,220,235,250,250,592.5,SBD,Raw
6,83,M,Open,Jarosław Drzewiecki,1988,KS Team Wrocław,82.5,200,207.5,-210,207.5,125,-132.5,132.5,132.5,235,247.5,-255,247.5,587.5,SBD,Raw
7,83,M,Open,Grzegorz Pszczyński,1994,KS Strength Coach Performance Wrocław,79.4,165,172.5,-180,172.5,112.5,117.5,-122.5,117.5,180,190,-200,190,480,SBD,Raw
8,83,M,Open,Łukasz Kowalczyk,1995,TKKF Azory Kraków,82,142.5,150,-160,150,130,132.5,-135,132.5,-170,180,-190,180,462.5,SBD,Raw
DQ,83,M,Open,Sławomir Litkowiec,1986,KS Wisła Puławy,83,-225,-225,225,225,-157.5,-157.5,157.5,157.5,-240,-240,,,,SBD,Raw
1,93,M,Open,Krzysztof Wierzbicki,1990,MOSiR Mikołów,92.9,250,280,295,295,175,185,190,190,320,-360,375,375,860,SBD,Raw
2,93,M,Open,Łukasz Matwin,1983,TKKF Herkules Warszawa,90.3,232.5,242.5,-252.5,242.5,140,147.5,-152.5,147.5,280,300,-317.5,300,690,SBD,Raw
3,93,M,Open,Szczepan Zimmermann,1990,SAC Ursus Krotoszym,91.6,250,257.5,-262.5,257.5,150,155,157.5,157.5,260,272.5,-280,272.5,687.5,SBD,Raw
4,93,M,Open,Szymon Grzegoszczyk,1992,KS Team Wrocław,84.6,215,-222.5,222.5,222.5,162.5,170,-172.5,170,245,257.5,-265,257.5,650,SBD,Raw
5,93,M,Open,Daniel Górski,1978,MKS Tur Ryki,91.5,230,-240,-240,230,160,165,-170,165,280,-290,-290,280,675,SBD,Raw
6,93,M,Open,Arkadiusz Szymanik,1990,AZS Politechnika Warszawska Warszawa,91.7,210,220,230,230,160,165,170,170,240,252.5,260,260,660,SBD,Raw
7,93,M,Open,Dawid Bilski,1994,KS Strength Coach Performance Wrocław,90.6,215,225,232.5,232.5,-150,150,155,155,225,235,245,245,632.5,SBD,Raw
8,93,M,Open,Mateusz Gąsiorowski,1989,Stow. Centrum Formy Dąbrowa Górnicza,90.3,195,207.5,215,215,-140,140,-145,140,-240,240,250,250,605,SBD,Raw
9,93,M,Open,Daniel Rynkiewicz,1991,SAC Ursus Krotoszym,85.8,-190,190,197.5,197.5,140,145,150,150,215,225,235,235,582.5,SBD,Raw
10,93,M,Open,Maciej Merchelski,1995,KS Anmar Warszawa,88.7,180,190,-195,190,130,-140,-140,130,-215,220,230,230,550,SBD,Raw
G,93,M,Open,Andrzej Szczurek,1993,TKKF Azory Kraków,92.1,75,,,75,-150,-150,155,155,75,,,75,305,SBD,Raw
DQ,93,M,Open,Mateusz Czechyra,1993,AZS Wojskowa Akademia Techniczna Warszawa,92.5,-250,-250,-260,,-175,,,,,,,,,SBD,Raw
1,105,M,Open,Adrian Świerczyński,1996,SKFSiR Piękni i zdrowi Dzierżoniów,104.26,250,260,267.5,267.5,187.5,195,-200,195,280,300,-310,300,762.5,SBD,Raw
2,105,M,Open,Kamil Filipiak,1993,SAC Ursus Krotoszym,104.44,270,290,-295,290,160,170,177.5,177.5,270,-285,-290,270,737.5,SBD,Raw
3,105,M,Open,Michał Kempys,1988,Stow. Centrum Formy Dąbrowa Górnicza,93.37,220,230,240,240,160,165,-170,165,270,285,-295,285,690,SBD,Raw
4,105,M,Open,Damian Ordon,1980,MKS Wicher Kobyłka,104.04,230,240,-245,240,-170,180,187.5,187.5,260,270,,270,697.5,SBD,Raw
5,105,M,Open,Dawid Zaniewski,1995,MKS Wicher Kobyłka,93.73,210,220,230,230,150,160,,160,240,250,-260,250,640,SBD,Raw
6,105,M,Open,Eryk Paszkiewicz,2000,Stow. Masakra Ełk,102.24,-245,-250,250,250,125,-130,-130,125,255,262.5,-275,262.5,637.5,SBD,Raw
7,105,M,Open,Kamil Wróblewski,1991,KS Team Wrocław,99.69,175,195,210,210,140,150,157.5,157.5,240,255,-260,255,622.5,SBD,Raw
8,105,M,Open,Jarosław Dąbrowski,1965,UKS Pover Kuźnik Chorzów,102.88,190,200,,200,140,-145,,140,230,,,230,570,SBD,Raw
1,120,M,Open,Piotr Sadowski #1,1993,AZS Wojskowa Akademia Techniczna Warszawa,118.9,300,320,-330,320,210,220,,220,320,342.5,-350.5,342.5,882.5,SBD,Raw
2,120,M,Open,Jacek Juszczyk,1994,KS Team Wrocław,115.1,-275,275,290,290,175,185,190,190,260,280,-300,280,760,SBD,Raw
3,120,M,Open,Adrian Masny,1995,AZS Politechnika Warszawska Warszawa,107.6,237.5,250,,250,150,160,162.5,162.5,240,250,-257.5,250,662.5,SBD,Raw
4,120,M,Open,Tomasz Kowalski,1982,KS Tęcza-Społem Kielce,113.5,220,230,-240,230,160,165,-170,165,260,270,280,280,675,SBD,Raw
5,120,M,Open,Rafał Sobczyk,1983,KS Team Wrocław,119.3,-240,-250,250,250,157.5,167.5,175,175,235,250,260,260,685,SBD,Raw
6,120,M,Open,Andrzej Woźniewicz,1984,KS Tęcza-Społem Kielce,111.7,180,190,-200,190,140,-150,-160,140,220,230,240,240,570,SBD,Raw
1,120+,M,Open,Marek Micewicz,1994,KS Team Wrocław,131.5,275,285,295,295,190,-200,200,200,265,285,-295,285,780,SBD,Raw
2,120+,M,Open,Sebastian Kwiatkowski,1996,Stow. Centrum Formy Dąbrowa Górnicza,125.3,250,260,270,270,160,170,-180,170,270,290,-300,290,730,SBD,Raw
3,120+,M,Open,Bartosz Kaczmarek,1988,KS Strength Coach Performance Wrocław,126.2,220,235,250,250,160,170,-180,170,235,270,-300,270,690,SBD,Raw
4,120+,M,Open,Andrzej Łasak,1966,LKS Nadwiślanin Kwidzyn,120.2,210,225,230,230,165,170,172.5,172.5,220,230,240,240,642.5,SBD,Raw
5,120+,M,Open,Kamil Dworak,1985,Stow. Centrum Formy Dąbrowa Górnicza,120.01,200,-215,-220,200,120,130,-137.5,130,230,-245,,230,560,SBD,Raw
1,83,M,Masters 40-49,Jacek Spychała,1978,KSSSiKW Wiking Starachowice,82.9,245,255,260,260,160,167.5,172.5,172.5,270,285,295,295,727.5,SBD,Raw
2,83,M,Masters 40-49,Sławomir Śledź,1976,TKKF Śródmieście Legnica,58.62,180,190,197.5,197.5,140,145,150,150,205,215,222.5,222.5,570,SBD,Raw
3,83,M,Masters 40-49,Marek Remiszewski,1978,Stow. Centrum Formy Dąbrowa Górnicza,72.48,170,177.5,183.5,183.5,130,137.5,-142.5,137.5,195,210,215,215,536,SBD,Raw
1,83+,M,Masters 40-49,Daniel Górski,1978,MKS Tur Ryki,91.5,230,-240,-240,230,160,165,-171,165,280,-290,-290,280,675,SBD,Raw
2,83+,M,Masters 40-49,Marcin Górka,1976,TKKF Azory Kraków,107.52,-240,240,-265,240,160,172.5,-180,172.5,255,280.5,,280.5,693,SBD,Raw
1,,M,Masters 50+,Józef Gromek,1958,UKS Pover Kuźnik Chorzów,92,200,220,-230,220,125,132.5,137.5,137.5,230,245,260,260,617.5,SBD,Raw
2,,M,Masters 50+,Mirosław Kania,1966,TKKF Azory Kraków,92.2,185,200,210,210,125,135,140,140,210,227.5,-230,227.5,577.5,SBD,Raw
3,,M,Masters 50+,Marek Jaroniec,1967,Stow. Pomorskie Stow. Trenerów Osobistych Gdynia,72.79,-190,190,-200,190,100,107.5,110,110,190,200,-210,200,500,SBD,Raw
4,,M,Masters 50+,Andrzej Łasak,1966,LKS Nadwiślanin Kwidzyn,120.2,210,225.5,230,230,165,170.5,172.5,172.5,220,230.5,240,240,642.5,SBD,Raw
5,,M,Masters 50+,Franciszek Michałowski,1952,UKS Pover Kuźnik Chorzów,73.43,160,170,175,175,85,90,-95,90,200,210,215,215,480,SBD,Raw
6,,M,Masters 50+,Henryk Hintzke,1957,PMKS Rybak Władysławowo,71.78,130,140,150,150,100,110,112.5,112.5,130,140,150,150,412.5,SBD,Raw
