EntryDate,Sex,Equipment,Division,WeightClassKg,BodyweightKg,Name,BirthDate,Best3SquatKg,Squat4Kg,Best3BenchKg,Bench4Kg,Best3DeadliftKg,Deadlift4Kg,TotalKg,Event,Place
2021-06-26,F,Wraps,Amateur Teen 13,52,51.94,Alliyah Zimmerman,2008-07-14,88.45,,43.09,,108.86,,240.4,SBD,1
2021-06-26,F,Wraps,Amateur Teen 18-19,52,51.26,Carli Eberly,2002-08-26,77.11,81.65,46.49,,105.46,106.59,229.06,SBD,1
2021-06-26,F,Raw,Amateur Juniors 20-23,60,59.99,Sarah Ransom,1998-07-10,130.41,,56.7,,156.49,,343.6,SBD,1
2021-06-26,F,Wraps,Amateur Juniors 20-23,75,74.75,Katherine Latter,1999-05-15,163.29,,79.38,,167.83,,410.5,SBD,1
2021-06-26,F,Wraps,Amateur Open,90,89.92,Emily Schukraft,1997-02-15,136.08,,90.72,,184.84,,411.64,SBD,1
2021-06-26,F,Wraps,Amateur Open,90,87.77,Jo Wall,1984-02-04,124.74,,97.52,,151.95,,374.21,SBD,2
2021-06-26,F,Wraps,Amateur Submasters 33-39,90,87.27,Gabrielle Benner,1985-10-03,136.08,,71.44,,149.69,155.36,357.2,SBD,1
2021-06-26,F,Wraps,Amateur Masters 40-44,82.5,78.11,Lisa Baker #3,1980-12-31,90.72,,68.04,72.57,108.86,,267.62,SBD,1
2021-06-26,F,Wraps,Amateur Masters 50-54,60,59.4,Lori Snook,1967-11-21,63.5,,36.29,,102.06,104.33,201.85,SBD,1
2021-06-26,F,Wraps,Pro Submasters 33-39,67.5,67.18,Damiana Marella,1982-10-18,139.48,142.88,88.45,90.72,142.88,,370.81,SBD,1
2021-06-26,F,Wraps,Pro Masters 45-49,67.5,64.95,Bonnie Marier,1975-07-17,136.08,138.35,61.23,63.5,138.35,140.61,335.66,SBD,1
2021-06-26,F,Multi-ply,Pro Masters 55-59,67.5,66.63,Denise Marais,1963-11-23,176.9,,131.54,,154.22,,462.66,SBD,1
2021-06-26,F,Raw,Amateur Juniors 20-23,67.5,63.28,Elizabeth Binder,1999-08-28,,,40.82,,,,40.82,B,1
2021-06-26,F,Raw,Amateur Open,90+,91.81,Mckennah Blouin,1996-06-20,,,68.04,,,,68.04,B,1
2021-06-26,F,Raw,Amateur Masters 60-64,52,50.53,Sandy Beamer,1957-07-09,,,37.42,,,,37.42,B,1
2021-06-26,F,Unlimited,Pro Open,90,83.91,Shawna Mendelson,1972-10-23,,,247.21,,,,247.21,B,1
2021-06-26,F,Unlimited,Pro Masters 45-49,90,83.91,Shawna Mendelson,1972-10-23,,,247.21,,,,247.21,B,1
2021-06-26,F,Raw,Amateur Open,82.5,80.56,Nicole Bernardini,1997-02-18,,,63.5,,83.91,,147.42,BD,1
2021-06-26,F,Raw,Amateur Masters 45-49,60,58.97,Heidi Urbanski,1975-06-25,,,58.97,,108.86,,167.83,BD,1
2021-06-26,F,Raw,Amateur Masters 45-49,67.5,63.96,Bobbi Austin,1972-10-30,,,56.7,,99.79,,156.49,BD,1
2021-06-26,M,Wraps,Amateur Teen 13-15,60,59.06,Donovan Zimmerman,2006-11-04,102.06,,54.43,,145.15,,301.64,SBD,1
2021-06-26,M,Wraps,Amateur Teen 13-15,100,95.48,Noah Himes,2006-11-18,188.24,,72.57,,149.69,,410.5,SBD,1
2021-06-26,M,Wraps,Amateur Teen 16-17,75,74.96,Connor Jones,2004-07-11,183.7,,102.06,,206.38,,492.15,SBD,1
2021-06-26,M,Wraps,Amateur Teen 18-19,90,89.9,Maxwell Moyers,2002-11-15,249.48,,168.96,,283.5,,701.93,SBD,1
2021-06-26,M,Wraps,Amateur Teen 18-19,90,86.11,Benjamin Atkinson,2001-09-01,195.04,,147.42,,215.46,,557.92,SBD,2
2021-06-26,M,Wraps,Amateur Teen 18-19,125,123.38,Bryce Miller,2001-07-30,226.8,,170.1,,208.65,,605.55,SBD,1
2021-06-26,M,Wraps,Amateur Juniors 20-23,67.5,67.22,Lucas Holderman,1999-06-09,147.42,,115.67,,197.31,,460.4,SBD,1
2021-06-26,M,Wraps,Amateur Juniors 20-23,75,73.6,Isaiah Gordon,1998-04-23,215.46,,142.88,,226.8,,585.13,SBD,1
2021-06-26,M,Wraps,Amateur Juniors 20-23,82.5,79.56,Kyle Hoffman,1998-02-22,195.04,,127.01,,226.8,,548.85,SBD,1
2021-06-26,M,Wraps,Amateur Open,75,74.53,Israel Lopez,1985-01-12,149.69,,102.06,,190.51,,442.25,SBD,1
2021-06-26,M,Wraps,Amateur Open,82.5,79.56,Kyle Hoffman,1998-02-22,195.04,,127.01,,226.8,,548.85,SBD,1
2021-06-26,M,Wraps,Amateur Open,90,89.9,Maxwell Moyers,2002-11-15,249.48,,168.96,,283.5,,701.93,SBD,1
2021-06-26,M,Wraps,Amateur Open,90,88.68,Mason Cooper,1998-12-21,192.78,,138.35,,204.12,,535.24,SBD,2
2021-06-26,M,Wraps,Amateur Masters 40-44,90,88.22,Gary Jouvelakas,1978-03-06,170.1,,122.47,,170.1,,462.66,SBD,1
2021-06-26,M,Wraps,Amateur Masters 50-54,82.5,80.31,Dave Bally,1969-01-05,131.54,,106.59,,181.44,,419.57,SBD,1
2021-06-26,M,Wraps,Amateur Masters 65-69,75,73.12,Doug Kline,1954-06-05,188.24,,113.4,,208.65,,510.29,SBD,1
2021-06-26,M,Wraps,Amateur Masters 65-69,90,82.89,Greg Fanelli,1956-05-22,97.52,99.79,83.91,,181.44,185.97,362.87,SBD,1
2021-06-26,M,Multi-ply,Amateur Open,90,85.55,Grant Gray,1985-01-06,260.82,,226.8,,226.8,,714.41,SBD,1
2021-06-26,M,Multi-ply,Amateur Masters 55-59,75,74.57,Doug Schader,1962-01-27,184.84,,108.86,,136.08,,429.78,SBD,1
2021-06-26,M,Wraps,Pro Open,90,86.77,Andy Butterfield,1960-07-16,165.56,,111.13,,226.8,,503.49,SBD,1
2021-06-26,M,Wraps,Pro Masters 40-44,82.5,82.42,Thomas LaRocco,1978-04-25,229.06,,154.22,,229.06,,612.35,SBD,1
2021-06-26,M,Wraps,Pro Masters 60-64,90,86.77,Andy Butterfield,1960-07-16,165.56,,111.13,,226.8,,503.49,SBD,1
2021-06-26,M,Wraps,Pro Police,82.5,82.42,Thomas LaRocco,1978-04-25,229.06,,154.22,,229.06,,612.35,SBD,1
2021-06-26,M,Multi-ply,Pro Open,90,89.54,Andrew Williams #3,1990-12-19,276.69,,192.78,,276.69,,746.16,SBD,1
2021-06-26,M,Multi-ply,Pro Masters 55-59,75,74.57,Doug Schader,1962-01-27,184.84,,108.86,,136.08,,429.78,SBD,1
2021-06-26,M,Raw,Amateur Teen 13,60,58.97,Landon Marsh,2009-06-07,,,58.97,61.23,,,58.97,B,1
2021-06-26,M,Raw,Amateur Open,90,88.09,Paul Stein,1995-08-26,,,102.06,,,,102.06,B,1
2021-06-26,M,Raw,Amateur Masters 50-54,90,87.45,Ernie Binder,1966-09-11,,,127.01,,,,127.01,B,1
2021-06-26,M,Raw,Amateur Masters 60-64,82.5,80.06,Crawford Mcferran,1959-12-08,,,117.93,,,,117.93,B,1
2021-06-26,M,Raw,Amateur Masters 60-64,100,98.38,Jeff Chrissis,1956-09-28,,,181.44,,,,181.44,B,1
2021-06-26,M,Multi-ply,Amateur Open,82.5,80.58,Aaron Clark,1993-05-25,,,251.74,,,,251.74,B,1
2021-06-26,M,Raw,Pro Masters 40-44,82.5,82.42,Thomas LaRocco,1978-04-25,,,154.22,,,,154.22,B,1
2021-06-26,M,Raw,Pro Police,82.5,82.42,Thomas LaRocco,1978-04-25,,,154.22,,,,154.22,B,1
2021-06-26,M,Multi-ply,Pro Open,82.5,81.6,Sean Hightman,1986-08-05,,,299.37,,,,299.37,B,1
2021-06-26,M,Multi-ply,Pro Masters 65-69,90,89.9,Gary Benford,1955-05-03,,,176.9,181.44,,,176.9,B,1
2021-06-26,M,Raw,Amateur Teen 16-17,75,74.46,Cameron Zimmerman,2004-10-08,,,95.25,,172.37,,267.62,BD,1
2021-06-26,M,Raw,Amateur Teen 16-17,100,90.85,Weston Pick,2004-04-13,,,111.13,,188.24,195.04,299.37,BD,1
2021-06-26,M,Raw,Amateur Masters 45-49,75,74.53,Rahmon Burton,1973-05-01,,,79.38,,124.74,,204.12,BD,1
2021-06-26,M,Multi-ply,Pro Teen 18-19,75,71.17,Cameron Manning,2002-05-30,,,83.91,,206.38,,290.3,BD,1
2021-06-26,M,Raw,Amateur Masters 70-74,82.5,81.47,Robert Temple,1950-11-11,,,,,183.7,188.24,183.7,D,1
2021-06-26,M,Multi-ply,Pro Masters 55-59,90,89.86,Thomas Deebel,1963-08-27,,,,,249.48,,249.48,D,1
2021-06-26,M,Wraps,Pro Masters 40-44,82.5,82.42,Thomas LaRocco,1978-04-25,229.06,,,,,,229.06,S,1
2021-06-26,M,Wraps,Pro Police,82.5,82.42,Thomas LaRocco,1978-04-25,229.06,,,,,,229.06,S,1
2021-06-26,M,Wraps,Pro Teen 16-17,82.5,79.33,Nicholas Sweikert,2004-01-11,190.51,,,,195.04,,385.55,SD,1
2021-06-27,M,Wraps,Amateur Open,100,99.47,John Ladik Jr,1969-01-18,215.46,229.06,149.69,,260.82,,625.96,SBD,1
2021-06-27,M,Wraps,Amateur Open,110,106.19,Toby Kitchen,1987-09-01,281.23,289.17,156.49,,247.21,,684.92,SBD,1
2021-06-27,M,Wraps,Amateur Open,110,107,Nathaniel Foor,1996-06-18,238.14,,156.49,,231.33,,625.96,SBD,2
2021-06-27,M,Wraps,Amateur Open,110,108.05,Daniil Aseyev,1992-06-05,226.8,,145.15,,238.14,,610.08,SBD,3
2021-06-27,M,Wraps,Amateur Open,125,122.33,Austin Schott,1996-10-01,249.48,,158.76,,226.8,,635.03,SBD,1
2021-06-27,M,Wraps,Amateur Open,140,137.44,Andrew Green,1992-12-03,260.82,,226.8,,294.84,,782.45,SBD,1
2021-06-27,M,Wraps,Amateur Submasters 33-39,100,97.98,Michael Werner,1983-12-16,181.44,,145.15,,213.19,,539.77,SBD,1
2021-06-27,M,Wraps,Amateur Submasters 33-39,110,106.19,Toby Kitchen,1987-09-01,281.23,289.17,156.49,,247.21,,684.92,SBD,1
2021-06-27,M,Wraps,Amateur Masters 45-49,100,99.74,Judd Long,1972-05-18,174.63,,167.83,,185.97,,528.44,SBD,1
2021-06-27,M,Wraps,Amateur Masters 50-54,100,99.47,John Ladik Jr,1969-01-18,215.46,229.06,149.69,,260.82,,625.96,SBD,1
2021-06-27,M,Wraps,Amateur Masters 55-59,110,107,William Muse,1963-03-14,142.88,,95.25,,179.17,,417.3,SBD,1
2021-06-27,M,Multi-ply,Amateur Open,125,124.69,Ryan Graham,1985-12-31,301.64,,188.24,,206.38,,696.26,SBD,1
2021-06-27,M,Multi-ply,Amateur Open,140,136.49,Ryan Bricker,1992-12-11,328.85,,235.87,,256.28,,821,SBD,1
2021-06-27,M,Multi-ply,Amateur Open,140+,141.61,Aaron Schulenburg,1980-09-12,340.19,,238.14,,251.74,,830.07,SBD,1
2021-06-27,M,Multi-ply,Amateur Submasters 33-39,110,105.01,David Flynn,1986-07-14,301.64,,181.44,,276.69,,759.77,SBD,1
2021-06-27,M,Multi-ply,Amateur Masters 65-69,125,114.17,Palmer Simpson Jr,1953-12-26,165.56,,145.15,,161.03,,471.74,SBD,1
2021-06-27,M,Wraps,Pro Open,100,99.5,Quinn Eicher,1993-10-17,229.06,,165.56,,238.14,,632.76,SBD,1
2021-06-27,M,Wraps,Pro Open,110,110,Noah Miller,1996-11-18,310.71,,176.9,,283.5,,771.11,SBD,1
2021-06-27,M,Wraps,Pro Open,110,101.24,Jack Masullo,1988-02-19,251.74,,165.56,,256.28,,673.58,SBD,2
2021-06-27,M,Wraps,Pro Open,125,120.38,Angel Garcia II,1983-03-21,326.59,,167.83,,281.23,,775.64,SBD,1
2021-06-27,M,Wraps,Pro Submasters 33-39,125,120.38,Angel Garcia II,1983-03-21,326.59,,167.83,,281.23,,775.64,SBD,1
2021-06-27,M,Wraps,Pro Masters 45-49,100,92.94,Brian Hannum,1971-12-12,226.8,,124.74,,231.33,,582.87,SBD,1
2021-06-27,M,Wraps,Pro Masters 50-54,110,109.95,Donald Riffle Jr,1968-08-23,306.17,,183.7,,319.78,,809.66,SBD,1
2021-06-27,M,Multi-ply,Pro Juniors 20-23,110,109.88,Logan Shady,1997-11-01,362.87,,213.19,,260.82,,836.88,SBD,1
2021-06-27,M,Multi-ply,Pro Open,100,99.06,Rob Forell,1980-07-27,376.48,,421.84,,299.37,,1097.69,SBD,1
2021-06-27,M,Multi-ply,Pro Open,140+,159.85,Rodney Woodward Jr,1985-10-31,469.47,,283.5,,319.78,,1072.75,SBD,1
2021-06-27,M,Multi-ply,Pro Masters 40-44,100,99.06,Rob Forell,1980-07-27,376.48,,421.84,,299.37,,1097.69,SBD,1
2021-06-27,M,Raw,Amateur Open,140,137.44,Andrew Green,1992-12-03,,,226.8,,,,226.8,B,1
2021-06-27,M,Raw,Amateur Open,140+,191.87,Robert Cutts,1959-12-06,,,192.78,,,,192.78,B,1
2021-06-27,M,Raw,Amateur Masters 40-44,100,98.38,Josue Rivera,1976-11-10,,,183.7,,,,183.7,B,1
2021-06-27,M,Raw,Amateur Masters 45-49,110,103.28,Erik Marsh,1973-05-02,,,145.15,,,,145.15,B,1
2021-06-27,M,Raw,Amateur Masters 50-54,110,108.98,Tony LaManna,1967-05-24,,,158.76,,,,158.76,B,1
2021-06-27,M,Raw,Amateur Masters 60-64,140+,191.87,Robert Cutts,1959-12-06,,,192.78,,,,192.78,B,1
2021-06-27,M,Raw,Amateur Masters 65-69,140,139.21,Bill Schnepf,1953-05-21,,,163.29,,,,163.29,B,1
2021-06-27,M,Raw,Amateur Police,140+,191.87,Robert Cutts,1959-12-06,,,192.78,,,,192.78,B,1
2021-06-27,M,Multi-ply,Amateur Masters 45-49,110,109.59,Rob Rathmell,1972-01-10,,,297.1,,,,297.1,B,1
2021-06-27,M,Raw,Pro Masters 60-64,110,109.54,Mike Cantrell,1958-10-14,,,161.03,165.56,,,161.03,B,1
2021-06-27,M,Raw,Pro Masters 60-64,110,108.77,David Wade,1960-04-01,,,158.76,,,,158.76,B,2
2021-06-27,M,Multi-ply,Pro Open,100,99.06,Rob Forell,1980-07-27,,,421.84,,,,421.84,B,1
2021-06-27,M,Multi-ply,Pro Open,125,119.75,Adam Hartlaub,1983-03-11,,,390.09,,,,390.09,B,1
2021-06-27,M,Multi-ply,Pro Open,125,124.01,Dave Poole,1987-05-23,,,294.84,,,,294.84,B,2
2021-06-27,M,Single-ply,Pro Open,140,134.99,Jimmy Kolb,1990-05-29,,,508.02,,,,508.02,B,1
2021-06-27,M,Multi-ply,Pro Masters 55-59,125,110.27,Randy Robinson,1962-12-18,,,308.44,,,,308.44,B,1
2021-06-27,M,Multi-ply,Pro Juniors 20-23,125,121.93,Alexander Punchello,1998-03-10,,,272.16,,276.69,,548.85,BD,1
2021-06-27,M,Raw,Amateur Masters 50-54,125,119.75,Matt Maini,1968-06-24,,,,,265.35,,265.35,D,1
