﻿BDFPF BK. - CHAMP.BEL SQUAT UNEQUIPPED 2012
BK. SQUAT UNEQUIPPED 2012
W.Class                                                                                             1é      2é       3é       4        points
- 63 KG Wuyts                                 Helen           V    Gilberts Gym   20   JR   59,3    115     122,5    125               108,60
- 80 KG Dechamps                              Nadege      V   Castors             15   T1   76,3    100     110      120      125      85,52
56 KG Vermeulen                               Sven            M      Iso Gym      20   JR   53,8    90      100      110      -115     100,86
67,5 KG Cuylle                                Angelo      M   Isogym              18   T3   66,7    125     132,5    -140              97,22
67,5 KG Bruneel                               Angelo      M   Isogym              18   T3   63,4    110     120      125               96,18
67,5 KG Jacmart                               Jeremy      M   Castors             20   JR   61,7    120     -130     130               102,73
67,5 KG Van Den Abbele                        Tim             M    Gilberts Gym   24   SR   62,8    140     -147,5   -147,5            108,71
75 KG De Vissher                              Geovanni    M   Power Lebbeke       18   T3   69,4    160     175      180               127,49
75 KG Sudarminto                              Indra       M   Planet Fitness      21   JR   73,7    210     220      225      230      151,58
75 KG Houbraken                               Kim         M   Gilberts Gym        28   SR   69,8    150     162,5                      114,53
75 KG Tirth                                   Ram         M   Dynamic Gym         39   SR   73,8    155     -165                       104,32
75 KG Van den Bogaert                         Tony        M   Patton Team         33   SR   74,1    120     130      140               93,91
75 KG Hallewaert                              Bart        M   Isogym              43   M1   73,9    172,5   180      185               124,38
75 KG Callemeyn                               Johny       M   Fit 4 fun           58   M4   73,5    140     -150     -150              94,53
82,5 KG Peeters                               Alan        M   Gilberts Gym        18   T3   78,8    150     160      170               108,78
82,5 KG Lauveryns                             Jarno       M   House Of Gain       20   JR   75,6    145     155      -160              102,35
82,5 KG Soenens                               Gillis      M   Isogym              21   JR   75,1    135     -140     140               92,93
82,5 KG Servotte                              Geoffroy    M   Planet Fitness      31   SR   82,2    185     202,5    213               131,94
90 KG Velghe                                  Jonas       M   Isogym              19   T3   89,2    157,5   162,5    167,5    -172,5   98,57
90 KG van Heesvelde                           Bart        M   House Of Gain       19   T3   83,1    125     135      150               92,43
90 KG Verbeke                                 Beny        M   Isogym              46   M2   88,5    140     155      165               97,58
100 KG Van Heesvelde                          Jeroen      M   House Of Gain       21   JR   98,7    207,5   220      -225,5            122,61
100 KG Theyssens                              Martin      M   Patton Team         72   M7   91,7    110     -120                       63,69
110 KG Van Roy                                Yannick     M   Planet Fitness      20   JR   108,2   185     200,5    210      212,5    113,15
110 KG Peeters                                Geeraard    M   Patton Team         25   SR   101,1   165     175      -180              96,51
125 KG Golsteyn                               Bart        M   Isogym              46   M2   117,2   170     180      -190              95,31
145 KG Dechamps                               Sebastien   M   Castors             18   T3   133,9   220     240,5    245      250      125,02
145 KG Dechamps                               Jerome      M   Castors             24   SR   127,5   220     240,5    245      250      126,91
Nat Record
European Record
World Record
Best Lifter
Drugtested
7 - 4 - 2012 Merksem
