Division,WeightClassKg,Place,Name,Team,BodyweightKg,Best3SquatKg,Best3BenchKg,Best3DeadliftKg,TotalKg,Equipment,Event,Sex
Boys,51.71,1,Juan Trejo,Friona,49.9,138.35,65.77,136.08,340.19,Single-ply,SBD,M
Boys,51.71,2,Nathan Flores,Friona,49.71,106.59,56.7,127.01,290.3,Single-ply,SBD,M
Boys,51.71,3,Santos Figueroa,Plainview,48.53,115.67,56.7,108.86,281.23,Single-ply,SBD,M
Boys,51.71,4,Brennan Riker,Post,51.71,113.4,52.16,113.4,278.96,Single-ply,SBD,M
Boys,51.71,5,Dominic Rodriguez,Levelland,48.17,77.11,74.84,113.4,265.35,Single-ply,SBD,M
Boys,51.71,6,Avery Gallegos,Plainview,50.44,102.06,63.5,58.97,224.53,Single-ply,SBD,M
Boys,51.71,DQ,Ezaiah Martinez,Dimmitt,50.53,81.65,,,,Single-ply,SBD,M
Boys,51.71,DQ,Marcus Sapp,Floydada,51.71,,,,,Single-ply,SBD,M
Boys,55.79,1,Cysco Barrera,Plainview,55.7,158.76,74.84,172.37,405.97,Single-ply,SBD,M
Boys,55.79,2,Anthony Lara,Wolfforth Frenship,52.89,136.08,86.18,174.63,396.89,Single-ply,SBD,M
Boys,55.79,3,Jose Hernandez #15,Seagraves,55.79,136.08,90.72,170.1,396.89,Single-ply,SBD,M
Boys,55.79,4,Corbin Byrd,Dalhart,54.88,120.2,72.57,115.67,308.44,Single-ply,SBD,M
Boys,55.79,5,Cristian Rayos,Levelland,54.88,113.4,68.04,122.47,303.91,Single-ply,SBD,M
Boys,55.79,DQ,Alejandro Diaz,Hart,54.43,,,,,Single-ply,SBD,M
Boys,59.87,1,Ceasar Luther,Perryton,59.87,145.15,97.52,172.37,415.04,Single-ply,SBD,M
Boys,59.87,2,Kevin Phan,Plainview,59.06,156.49,81.65,174.63,412.77,Single-ply,SBD,M
Boys,59.87,3,Mario Hernandez,Friona,59.6,154.22,88.45,170.1,412.77,Single-ply,SBD,M
Boys,59.87,4,Marin Santiago,Friona,59.78,131.54,72.57,156.49,360.61,Single-ply,SBD,M
Boys,59.87,5,Chance Cruz,Argyle,59.87,133.81,65.77,158.76,358.34,Single-ply,SBD,M
Boys,59.87,6,Adrian Gill,Plainview,58.69,122.47,65.77,136.08,324.32,Single-ply,SBD,M
Boys,59.87,7,Juan Oltivero,Dimmitt,58.51,102.06,58.97,140.61,301.64,Single-ply,SBD,M
Boys,59.87,8,Jacob Palomino,Lockney,58.33,113.4,52.16,127.01,292.57,Single-ply,SBD,M
Boys,59.87,9,Kyle Brunington,Floydada,56.52,97.52,68.04,115.67,281.23,Single-ply,SBD,M
Boys,59.87,10,Andrew Gonzales,Floydada,59.6,102.06,65.77,102.06,269.89,Single-ply,SBD,M
Boys,67.13,1,Luis Uruchutu,Canyon Randall,65.23,176.9,111.13,192.78,480.81,Single-ply,SBD,M
Boys,67.13,2,Brandon Sigala,Levelland,65.59,156.49,99.79,195.04,451.32,Single-ply,SBD,M
Boys,67.13,3,Matthew Cano,Perryton,65.41,170.1,106.59,165.56,442.25,Single-ply,SBD,M
Boys,67.13,4,Gus Garcia,Plainview,64.86,167.83,111.13,161.03,439.98,Single-ply,SBD,M
Boys,67.13,5,Kenny Ramirez #2,Perryton,66.04,131.54,83.91,136.08,351.53,Single-ply,SBD,M
Boys,67.13,6,Case Dickey,Wolfforth Frenship,61.96,129.27,70.31,147.42,347,Single-ply,SBD,M
Boys,67.13,7,Kade Tinsley,Bushland,64.41,131.54,79.38,133.81,344.73,Single-ply,SBD,M
Boys,67.13,8,Donald Gibbens,Floydada,65.68,131.54,88.45,122.47,342.46,Single-ply,SBD,M
Boys,67.13,9,Kelby Barnes,Shallowater,66.32,124.74,83.91,124.74,333.39,Single-ply,SBD,M
Boys,67.13,10,Devan Perez,Floydada,60.6,124.74,77.11,124.74,326.59,Single-ply,SBD,M
Boys,67.13,11,John Wall,Dimmitt,66.32,108.86,72.57,136.08,317.51,Single-ply,SBD,M
Boys,67.13,12,Timmothy Dettle,Dalhart,66.41,102.06,63.5,138.35,303.91,Single-ply,SBD,M
Boys,67.13,13,Nathan McDaniel,Post,61.87,97.52,52.16,115.67,265.35,Single-ply,SBD,M
Boys,67.13,14,Montana Williams,Post,66.04,83.91,61.23,106.59,251.74,Single-ply,SBD,M
Boys,67.13,15,Jake Mahaney,Wolfforth Frenship,66.86,83.91,56.7,104.33,244.94,Single-ply,SBD,M
Boys,67.13,DQ,Alez Carmona,Floydada,66.5,154.22,,,,Single-ply,SBD,M
Boys,67.13,DQ,Raul Hernandez,Hart,62.6,,,,,Single-ply,SBD,M
Boys,67.13,DQ,Rayce Birdwell,Dimmitt,67.13,,,,,Single-ply,SBD,M
Boys,74.84,1,Brock Martin,Argyle,73.71,208.65,120.2,229.06,557.92,Single-ply,SBD,M
Boys,74.84,2,Slade Harris,Canyon Randall,74.03,183.7,111.13,192.78,487.61,Single-ply,SBD,M
Boys,74.84,3,Mario Banos,Perryton,74.03,174.63,104.33,188.24,467.2,Single-ply,SBD,M
Boys,74.84,4,Joseph Jenkins,Perryton,70.4,181.44,111.13,172.37,464.93,Single-ply,SBD,M
Boys,74.84,5,Isaiah Ramos,Shallowater,69.85,170.1,106.59,167.83,444.52,Single-ply,SBD,M
Boys,74.84,6,Arnie Martinez,Floydada,70.58,136.08,102.06,192.78,430.91,Single-ply,SBD,M
Boys,74.84,7,Greg Stringfellow,Argyle,73.39,151.95,95.25,179.17,426.38,Single-ply,SBD,M
Boys,74.84,8,Isaac Garza,Levelland,73.48,142.88,97.52,174.63,415.04,Single-ply,SBD,M
Boys,74.84,9,Skyler Davis,Levelland,74.84,142.88,86.18,167.83,396.89,Single-ply,SBD,M
Boys,74.84,10,Aaron Granados,Levelland,72.48,149.69,74.84,167.83,392.36,Single-ply,SBD,M
Boys,74.84,11,Kingsley Rodriguez,Seagraves,73.75,140.61,97.52,149.69,387.82,Single-ply,SBD,M
Boys,74.84,12,Rogelio Palacios,Friona,72.21,142.88,72.57,124.74,340.19,Single-ply,SBD,M
Boys,74.84,13,Abraham Navarro,Dimmitt,72.85,113.4,102.06,120.2,335.66,Single-ply,SBD,M
Boys,74.84,14,Nick Quintana,Post,70.49,83.91,52.16,88.45,224.53,Single-ply,SBD,M
Boys,74.84,DQ,Noel Gonzales-Chavez,Dimmitt,74.84,,,,,Single-ply,SBD,M
Boys,74.84,DQ,Ricky Cuellar,Lockney,74.84,,,,,Single-ply,SBD,M
Boys,74.84,DQ,Azariah Guerra,Floydada,74.84,,,,,Single-ply,SBD,M
Boys,74.84,DQ,Alex Licerio,Friona,74.84,,,,,Single-ply,SBD,M
Boys,82.1,1,Robert Herndon,Perryton,82.1,235.87,145.15,222.26,603.28,Single-ply,SBD,M
Boys,82.1,2,Nick Golden,Argyle,80.74,208.65,99.79,251.74,560.19,Single-ply,SBD,M
Boys,82.1,3,Naton Edwards,Argyle,80.2,183.7,111.13,215.46,510.29,Single-ply,SBD,M
Boys,82.1,4,Jacob Eugenis,Wolfforth Frenship,82.1,174.63,92.99,213.19,480.81,Single-ply,SBD,M
Boys,82.1,5,Anthony Aguilar,Dalhart,81.92,174.63,95.25,181.44,451.32,Single-ply,SBD,M
Boys,82.1,6,Carson Smith,Dalhart,80.65,170.1,97.52,170.1,437.72,Single-ply,SBD,M
Boys,82.1,7,Chris Martinez,Dimmitt,82.01,181.44,90.72,165.56,437.72,Single-ply,SBD,M
Boys,82.1,8,Logan Pipkin,Lubbock Cooper,81.56,163.29,99.79,172.37,435.45,Single-ply,SBD,M
Boys,82.1,9,Hunter Graves,Post,77.56,167.83,95.25,165.56,428.64,Single-ply,SBD,M
Boys,82.1,10,Hayden Vanderoust,Shallowater,80.74,158.76,97.52,167.83,424.11,Single-ply,SBD,M
Boys,82.1,11,Cameron Enriquez,Dimmitt,76.75,158.76,97.52,163.29,419.57,Single-ply,SBD,M
Boys,82.1,12,Usbaldo Zarate,Dalhart,76.29,170.1,74.84,170.1,415.04,Single-ply,SBD,M
Boys,82.1,13,Logan Terrel,Bushland,76.93,131.54,97.52,183.7,412.77,Single-ply,SBD,M
Boys,82.1,14,Tyler Hairston,Lubbock Cooper,78.65,165.56,90.72,147.42,403.7,Single-ply,SBD,M
Boys,82.1,15,Carson Rush,Lubbock Cooper,80.01,165.56,77.11,156.49,399.16,Single-ply,SBD,M
Boys,82.1,16,Keanu Villarreal,Lockney,82.01,136.08,102.06,138.35,376.48,Single-ply,SBD,M
Boys,82.1,17,Tru Gibson,Bushland,78.38,142.88,74.84,149.69,367.41,Single-ply,SBD,M
Boys,82.1,18,Ricardo Espinoza,Dimmitt,77.2,136.08,83.91,145.15,365.14,Single-ply,SBD,M
Boys,82.1,19,Mike Delefuente,Floydada,77.02,129.27,81.65,147.42,358.34,Single-ply,SBD,M
Boys,82.1,20,Payton Roberts #1,Levelland,79.02,117.93,83.91,136.08,337.93,Single-ply,SBD,M
Boys,82.1,21,Cole Boren,Post,79.38,142.88,77.11,111.13,331.12,Single-ply,SBD,M
Boys,82.1,22,Silas Urrutia,Lockney,75.39,124.74,61.23,113.4,299.37,Single-ply,SBD,M
Boys,82.1,23,Landon Fike,Canyon,81.65,106.59,72.57,120.2,299.37,Single-ply,SBD,M
Boys,82.1,DQ,Caden Lafever,Canyon Randall,82.1,,,,,Single-ply,SBD,M
Boys,82.1,DQ,Jonathan Barba,Canyon Randall,82.1,,,,,Single-ply,SBD,M
Boys,82.1,DQ,Keagan Knight,Dalhart,77.02,136.08,,,,Single-ply,SBD,M
Boys,82.1,DQ,Tobi Banire,Wolfforth Frenship,81.92,197.31,,,,Single-ply,SBD,M
Boys,89.81,1,Isaac Castillo,Plainview,83.19,201.85,131.54,183.7,517.1,Single-ply,SBD,M
Boys,89.81,2,Cameron Bednarz,Lubbock Cooper,87.91,188.24,113.4,197.31,498.95,Single-ply,SBD,M
Boys,89.81,3,Jared Ware,Lubbock Cooper,87.82,190.51,117.93,188.24,496.68,Single-ply,SBD,M
Boys,89.81,4,Julian Rios,Wolfforth Frenship,84.01,170.1,120.2,192.78,483.08,Single-ply,SBD,M
Boys,89.81,5,Braxton Jurodo,Shallowater,85.37,183.7,97.52,190.51,471.74,Single-ply,SBD,M
Boys,89.81,6,Arturo Lopez,Perryton,84.73,190.51,111.13,167.83,469.47,Single-ply,SBD,M
Boys,89.81,7,Andrew Santiago,Canyon Randall,84.37,158.76,111.13,167.83,437.72,Single-ply,SBD,M
Boys,89.81,8,Cardell Wickware,Floydada,87.63,145.15,136.08,154.22,435.45,Single-ply,SBD,M
Boys,89.81,9,Julian Flores,Wolfforth Frenship,86.18,156.49,120.2,151.95,428.64,Single-ply,SBD,M
Boys,89.81,10,Troy Jewell,Lubbock Cooper,85.09,158.76,92.99,174.63,426.38,Single-ply,SBD,M
Boys,89.81,11,Ryan Eller,Shallowater,82.74,149.69,90.72,154.22,394.63,Single-ply,SBD,M
Boys,89.81,12,Logan Duncan,Lubbock Cooper,85.55,145.15,99.79,149.69,394.63,Single-ply,SBD,M
Boys,89.81,13,Nathan Fletcher #3,Levelland,88.09,142.88,83.91,154.22,381.02,Single-ply,SBD,M
Boys,89.81,14,Logan Abbott,Lubbock Cooper,85.28,140.61,99.79,133.81,374.21,Single-ply,SBD,M
Boys,89.81,15,Alex Hernandez #5,Levelland,87.82,122.47,74.84,120.2,317.51,Single-ply,SBD,M
Boys,89.81,DQ,Remington Saavedra,Dalhart,89.81,,,,,Single-ply,SBD,M
Boys,89.81,DQ,Jackson Espe,Bushland,89.81,,,,,Single-ply,SBD,M
Boys,99.79,1,Uriel Hernandez,Perryton,99.79,272.16,170.1,226.8,669.05,Single-ply,SBD,M
Boys,99.79,2,Isaiah Williams,Wolfforth Frenship,97.34,204.12,147.42,249.48,601.01,Single-ply,SBD,M
Boys,99.79,3,Zach Bocanegra,Lubbock Cooper,98.61,238.14,145.15,208.65,591.94,Single-ply,SBD,M
Boys,99.79,4,D'Shae Casias,Plainview,99.7,226.8,129.27,197.31,553.38,Single-ply,SBD,M
Boys,99.79,5,Caleb Frausto,Canyon Randall,91.9,206.38,149.69,192.78,548.85,Single-ply,SBD,M
Boys,99.79,6,Christian Perez,Levelland,92.17,219.99,120.2,192.78,532.97,Single-ply,SBD,M
Boys,99.79,7,Lorenzo Coy-Galindo,Wolfforth Frenship,96.34,208.65,86.18,226.8,521.63,Single-ply,SBD,M
Boys,99.79,8,Holt Pierce,Shallowater,91.63,188.24,117.93,190.51,496.68,Single-ply,SBD,M
Boys,99.79,9,Shelby Sanderson,Canyon Randall,98.16,185.97,131.54,174.63,492.15,Single-ply,SBD,M
Boys,99.79,10,Jesus Jaramillo,Friona,97.61,172.37,111.13,188.24,471.74,Single-ply,SBD,M
Boys,99.79,11,Ariel Jaramillo,Friona,97.79,176.9,106.59,185.97,469.47,Single-ply,SBD,M
Boys,99.79,12,Preston Love,Bushland,90.9,170.1,97.52,163.29,430.91,Single-ply,SBD,M
Boys,99.79,13,Jonathan Castro,Canyon,91.72,154.22,102.06,170.1,426.38,Single-ply,SBD,M
Boys,99.79,14,Luke Terrell,Bushland,94.08,147.42,102.06,161.03,410.5,Single-ply,SBD,M
Boys,99.79,15,Andrew Rodriguez,Bushland,97.07,142.88,115.67,151.95,410.5,Single-ply,SBD,M
Boys,99.79,16,Andrew Cigarroa,Friona,91.44,147.42,77.11,142.88,367.41,Single-ply,SBD,M
Boys,99.79,17,Jaden Diaz,Post,90.54,106.59,72.57,138.35,317.51,Single-ply,SBD,M
Boys,99.79,18,Alex Montez #1,Friona,92.99,106.59,52.16,124.74,283.5,Single-ply,SBD,M
Boys,99.79,DQ,Brenden Schmidt,Wolfforth Frenship,99.79,,,,,Single-ply,SBD,M
Boys,99.79,DQ,Charlie Law,Canyon,92.08,142.88,,,,Single-ply,SBD,M
Boys,109.77,1,Octavius Vera,Plainview,109.45,294.84,147.42,231.33,673.58,Single-ply,SBD,M
Boys,109.77,2,Jesus Benitez,Lubbock Cooper,104.24,272.16,149.69,242.67,664.51,Single-ply,SBD,M
Boys,109.77,3,Valente Perez,Post,102.87,249.48,133.81,226.8,610.08,Single-ply,SBD,M
Boys,109.77,4,Adrian Ramirez,Plainview,107.5,233.6,122.47,217.72,573.79,Single-ply,SBD,M
Boys,109.77,5,Israel Uribe,Perryton,108.14,219.99,127.01,219.99,566.99,Single-ply,SBD,M
Boys,109.77,6,David Navarrete,Perryton,105.14,206.38,151.95,206.38,564.72,Single-ply,SBD,M
Boys,109.77,7,Braeden Robinson,Wolfforth Frenship,104.87,176.9,104.33,276.69,557.92,Single-ply,SBD,M
Boys,109.77,8,Owen Petrie,Argyle,109.68,183.7,138.35,226.8,548.85,Single-ply,SBD,M
Boys,109.77,9,Bryan Martinez,Plainview,105.23,226.8,138.35,176.9,542.04,Single-ply,SBD,M
Boys,109.77,10,Brendon Eminger,Canyon,106.68,229.06,115.67,183.7,528.44,Single-ply,SBD,M
Boys,109.77,11,Ethan Saldana,Lubbock Cooper,104.24,192.78,122.47,199.58,514.83,Single-ply,SBD,M
Boys,109.77,12,Matt Ramirez,Wolfforth Frenship,105.05,183.7,113.4,183.7,480.81,Single-ply,SBD,M
Boys,109.77,13,Steven Bazan,Lockney,105.96,210.92,99.79,165.56,476.27,Single-ply,SBD,M
Boys,109.77,14,Jacob Vasquez #3,Lubbock Cooper,102.6,174.63,122.47,165.56,462.66,Single-ply,SBD,M
Boys,109.77,15,Andrew Sanchez,Lockney,108.59,154.22,97.52,172.37,424.11,Single-ply,SBD,M
Boys,109.77,16,Alan Mendoza,Seagraves,104.05,154.22,95.25,158.76,408.23,Single-ply,SBD,M
Boys,109.77,17,Simon Hernandez,Floydada,106.87,136.08,92.99,158.76,387.82,Single-ply,SBD,M
Boys,109.77,18,Treyson Crow,Post,107.59,115.67,83.91,147.42,347,Single-ply,SBD,M
Boys,109.77,19,Juan Lara,Friona,101.97,142.88,70.31,106.59,319.78,Single-ply,SBD,M
Boys,124.74,1,Yordi Hernandez,Perryton,120.84,231.33,149.69,226.8,607.81,Single-ply,SBD,M
Boys,124.74,2,Frank Gallegos,Dalhart,116.3,226.8,151.95,204.12,582.87,Single-ply,SBD,M
Boys,124.74,3,Tim Dominguez,Plainview,113.4,219.99,131.54,204.12,555.65,Single-ply,SBD,M
Boys,124.74,4,Pete Vargas,Wolfforth Frenship,118.84,215.46,117.93,199.58,532.97,Single-ply,SBD,M
Boys,124.74,5,Kendall Ptacnik,Canyon Randall,122.47,192.78,142.88,197.31,532.97,Single-ply,SBD,M
Boys,124.74,6,Cooper Lackie,Dalhart,124.74,195.04,111.13,201.85,508.02,Single-ply,SBD,M
Boys,124.74,7,Brendan Herring,Dalhart,118.12,204.12,111.13,190.51,505.76,Single-ply,SBD,M
Boys,124.74,8,Zach Morgan,Wolfforth Frenship,111.4,170.1,113.4,215.46,498.95,Single-ply,SBD,M
Boys,124.74,9,Bill Overton,Denton Guyer,122.47,192.78,111.13,192.78,496.68,Single-ply,SBD,M
Boys,124.74,10,Jaime Lopez,Wolfforth Frenship,116.39,174.63,117.93,188.24,480.81,Single-ply,SBD,M
Boys,124.74,11,Jacob Johnston,Floydada,114.4,140.61,104.33,195.04,439.98,Single-ply,SBD,M
Boys,124.74,12,Taye Perez,Post,114.4,158.76,83.91,170.1,412.77,Single-ply,SBD,M
Boys,124.74,13,Kevin Cruz,Post,119.84,102.06,99.79,149.69,351.53,Single-ply,SBD,M
Boys,124.74,DQ,David Muñoz,Canyon Randall,124.74,,,,,Single-ply,SBD,M
Boys,124.74,DQ,Brandon Campos,Bushland,124.74,,,,,Single-ply,SBD,M
Boys,124.74+,1,Jeremiah Cope,Wolfforth Frenship,137.62,265.35,174.63,197.31,637.3,Single-ply,SBD,M
Boys,124.74+,2,Jaden Massey,Dalhart,148.6,204.12,151.95,204.12,560.19,Single-ply,SBD,M
Boys,124.74+,3,Dominick Longoria,Seagraves,160.66,204.12,113.4,204.12,521.63,Single-ply,SBD,M
Boys,124.74+,4,Josh Hicks,Argyle,125.37,188.24,111.13,158.76,458.13,Single-ply,SBD,M
Boys,124.74+,5,Javen Diaz,Post,129.73,138.35,95.25,142.88,376.48,Single-ply,SBD,M
Boys,124.74+,6,Beau Zuniga,Levelland,128.64,142.88,56.7,158.76,358.34,Single-ply,SBD,M
Boys,124.74+,7,Wyatt Winningham,Friona,134.44,113.4,63.5,154.22,331.12,Single-ply,SBD,M
Boys,124.74+,8,John David,Bushland,144.61,90.72,79.38,83.91,254.01,Single-ply,SBD,M
