Name,WeightClassKg,Division,Sex,Best3SquatKg,Best3BenchKg,Best3DeadliftKg,TotalKg,Event,Equipment,Place
D. Gunther,52,Open,M,92.99,56.7,140.61,290.3,SBD,Single-ply,1
Matt Hepp,52,Open,M,106.59,77.11,104.33,288.03,SBD,Single-ply,2
C. Borzumate,52,Open,F,70.31,36.29,104.33,210.92,SBD,Single-ply,3
Mike Rose #1,56,Open,M,154.22,99.79,206.38,460.4,SBD,Single-ply,1
F. Giannandrea,56,Open,M,111.13,86.18,151.95,349.27,SBD,Single-ply,2
Matt Hepp,56,Open,M,113.4,77.11,131.54,322.05,SBD,Single-ply,3
Paul Ciola,56,Open,M,104.33,52.16,120.2,276.69,SBD,Single-ply,4
Joe DiMeo,56,Open,M,77.11,65.77,102.06,244.94,SBD,Single-ply,5
David Mollevik,60,Open,M,165.56,115.67,165.56,446.79,SBD,Single-ply,1
Baron Bright,60,Open,M,145.15,90.72,183.71,419.57,SBD,Single-ply,2
K. Norton,60,Open,M,138.35,108.86,167.83,415.04,SBD,Single-ply,3
Ronald Daly,60,Open,M,136.08,102.06,145.15,383.29,SBD,Single-ply,4
J. Lascelles,60,Open,M,102.06,72.57,136.08,310.71,SBD,Single-ply,5
George Fosmire,67.5,Open,M,183.71,115.67,244.94,544.31,SBD,Single-ply,1
Jay Fortino,67.5,Open,M,195.04,127.01,222.26,544.31,SBD,Single-ply,2
John Misiaczek,67.5,Open,M,188.24,129.27,192.78,510.29,SBD,Single-ply,3
L. Allbrandi,67.5,Open,M,176.9,106.59,204.12,487.61,SBD,Single-ply,4
R. St Ong,67.5,Open,M,170.1,120.2,192.78,483.08,SBD,Single-ply,5
D. Maser,67.5,Open,M,163.29,97.52,204.12,464.93,SBD,Single-ply,6
B. Reed,67.5,Open,M,124.74,124.74,181.44,430.91,SBD,Single-ply,8
T. Marten,67.5,Open,M,140.61,129.27,167.83,437.72,SBD,Single-ply,7
D. Ploof,67.5,Open,M,136.08,90.72,192.78,419.57,SBD,Single-ply,9
Tom Piazza,75,Open,M,238.14,163.29,251.74,653.17,SBD,Single-ply,1
Keala Dutro,75,Open,M,233.6,122.47,260.82,616.89,SBD,Single-ply,2
Larry Harlowe,75,Open,M,181.44,127.01,240.4,548.85,SBD,Single-ply,3
Fred Kenyon,75,Open,M,208.65,111.13,226.8,546.58,SBD,Single-ply,4
Matt Sherwood,75,Open,M,192.78,117.93,204.12,514.83,SBD,Single-ply,5
R. Tousan,75,Open,M,181.44,120.2,204.12,505.76,SBD,Single-ply,6
F. Carpenter,75,Open,M,181.44,117.93,204.12,503.49,SBD,Single-ply,7
Joseph Gardner,75,Open,M,167.83,115.67,183.71,467.2,SBD,Single-ply,8
Allan Roberts,82.5,Open,M,235.87,131.54,281.23,648.64,SBD,Single-ply,1
P. Beauchamp,82.5,Open,M,235.87,129.27,258.55,623.69,SBD,Single-ply,2
R. Dow,82.5,Open,M,231.33,138.35,235.87,605.55,SBD,Single-ply,3
H. Mas,82.5,Open,M,226.8,131.54,235.87,594.21,SBD,Single-ply,4
Tony Cardillo,82.5,Open,M,222.26,145.15,226.8,594.21,SBD,Single-ply,5
Fred Brescia,82.5,Open,M,224.53,138.35,219.99,582.87,SBD,Single-ply,6
S. Walrath,82.5,Open,M,210.92,133.81,215.46,560.19,SBD,Single-ply,7
Ken Buckingham,82.5,Open,M,199.58,129.27,226.8,555.65,SBD,Single-ply,8
John Dropper,82.5,Open,M,197.31,122.47,229.06,548.85,SBD,Single-ply,9
John LaFay,82.5,Open,M,204.12,129.27,213.19,546.58,SBD,Single-ply,10
James Tesiero,82.5,Open,M,181.44,136.08,226.8,544.31,SBD,Single-ply,11
D. Brewer,82.5,Open,M,192.78,129.27,213.19,535.24,SBD,Single-ply,12
E. Kelly,82.5,Open,M,181.44,127.01,213.19,521.63,SBD,Single-ply,13
F. Mink,82.5,Open,M,199.58,104.33,199.58,503.49,SBD,Single-ply,14
Walt Bird,82.5,Open,M,195.04,104.33,192.78,492.15,SBD,Single-ply,15
R. Coughlin,82.5,Open,M,163.29,133.81,192.78,489.88,SBD,Single-ply,16
D. Brunette,82.5,Open,M,206.38,,,,SBD,Single-ply,DQ
B. Slocum,82.5,Open,M,188.24,,,,SBD,Single-ply,DQ
B. McCabe,82.5,Open,M,158.76,,,,SBD,Single-ply,DQ
Tony Coratti,90,Open,M,281.23,158.76,272.16,712.14,SBD,Single-ply,1
Bill Clute,90,Open,M,240.4,142.88,249.48,632.76,SBD,Single-ply,2
Neil Confessore,90,Open,M,235.87,156.49,235.87,628.23,SBD,Single-ply,3
Gary Massaroni,90,Open,M,231.33,147.42,240.4,619.15,SBD,Single-ply,4
D. Massaroni,90,Open,M,197.31,156.49,260.82,614.62,SBD,Single-ply,5
B. Hastings,90,Open,M,206.38,147.42,229.06,582.87,SBD,Single-ply,6
Dana Detwiler,90,Open,M,213.19,145.15,222.26,580.6,SBD,Single-ply,7
D. Hyde,90,Open,M,204.12,120.2,238.14,562.46,SBD,Single-ply,8
Dave Drapalski,90,Open,M,201.85,127.01,231.33,560.19,SBD,Single-ply,9
J. Palmer,90,Open,M,204.12,147.42,192.78,544.31,SBD,Single-ply,10
J. Leone,90,Open,M,181.44,158.76,185.97,526.17,SBD,Single-ply,11
J. Bartley,90,Open,M,195.04,108.86,219.99,523.9,SBD,Single-ply,12
J. Funaro,90,Open,M,222.26,,,,SBD,Single-ply,DQ
Ray Simmons,100,Open,M,299.37,167.83,297.1,764.3,SBD,Single-ply,1
George Galster,100,Open,M,294.84,181.44,272.16,748.43,SBD,Single-ply,2
M. Walrath,100,Open,M,274.42,149.69,274.42,698.53,SBD,Single-ply,3
Steve McDermott,100,Open,M,233.6,192.78,265.35,691.73,SBD,Single-ply,4
John Paretta,100,Open,M,249.48,167.83,229.06,646.37,SBD,Single-ply,5
E. Droppelt,100,Open,M,244.94,149.69,249.48,644.1,SBD,Single-ply,6
Jorgen Bowman,100,Open,M,244.94,147.42,249.48,641.83,SBD,Single-ply,7
James Nichols,100,Open,M,231.33,154.22,231.33,616.89,SBD,Single-ply,8
Jay Confalone,100,Open,M,226.8,147.42,,,SBD,Single-ply,DQ
Joe White,110,Open,M,281.23,190.51,283.5,755.23,SBD,Single-ply,1
Mark Grogan,110,Open,M,283.5,176.9,281.23,741.62,SBD,Single-ply,2
K. Potter,110,Open,M,254.01,176.9,226.8,657.71,SBD,Single-ply,3
James Martin #9,110,Open,M,249.48,174.63,226.8,650.91,SBD,Single-ply,4
Ralph Raiola Sr,110,Open,M,215.46,149.69,229.06,594.21,SBD,Single-ply,5
D. Taurisano,110,Open,M,149.69,97.52,172.37,419.57,SBD,Single-ply,6
Jim Greco,125,Open,M,254.01,197.31,272.16,723.48,SBD,Single-ply,1
George Minor,125,Open,M,285.76,158.76,272.16,716.68,SBD,Single-ply,2
Ted Reed,125,Open,M,249.48,145.15,285.76,680.39,SBD,Single-ply,3
Jim Tomaski,125+,Open,M,326.59,195.04,285.76,807.4,SBD,Single-ply,1
